(module "LEDM168X110N" (layer F.Cu)
  (descr "1.6 x 0.8mm Ultra Low Current Series")
  (tags "LED")
  (attr smd)
  (fp_text reference LED** (at 0 0) (layer F.SilkS)
    (effects (font (size 1.27 1.27) (thickness 0.254)))
  )
  (fp_text user %R (at 0 0) (layer F.Fab)
    (effects (font (size 1.27 1.27) (thickness 0.254)))
  )
  (fp_text value "LEDM168X110N" (at 0 0) (layer F.SilkS) hide
    (effects (font (size 1.27 1.27) (thickness 0.254)))
  )
  (fp_line (start -1.65 -0.725) (end 1.65 -0.725) (layer F.CrtYd) (width 0.05))
  (fp_line (start 1.65 -0.725) (end 1.65 0.725) (layer F.CrtYd) (width 0.05))
  (fp_line (start 1.65 0.725) (end -1.65 0.725) (layer F.CrtYd) (width 0.05))
  (fp_line (start -1.65 0.725) (end -1.65 -0.725) (layer F.CrtYd) (width 0.05))
  (fp_line (start -0.8 -0.4) (end 0.8 -0.4) (layer F.Fab) (width 0.1))
  (fp_line (start 0.8 -0.4) (end 0.8 0.4) (layer F.Fab) (width 0.1))
  (fp_line (start 0.8 0.4) (end -0.8 0.4) (layer F.Fab) (width 0.1))
  (fp_line (start -0.8 0.4) (end -0.8 -0.4) (layer F.Fab) (width 0.1))
  (fp_line (start -0.8 -0.05) (end -0.45 -0.4) (layer F.Fab) (width 0.1))
  (fp_line (start 0.8 -0.4) (end -1.15 -0.4) (layer F.SilkS) (width 0.2))
  (fp_line (start -0.8 0.4) (end 0.8 0.4) (layer F.SilkS) (width 0.2))
  (pad 1 smd rect (at -0.8 0 90) (size 0.7 1.2) (layers F.Cu F.Paste F.Mask))
  (pad 2 smd rect (at 0.8 0 90) (size 0.7 1.2) (layers F.Cu F.Paste F.Mask))
)
