(module SOIC127P600X175-8N (layer F.Cu)
(descr "D (R-PDSO-G8)")
  (tags "Integrated Circuit")
  (attr smd)
  (fp_text reference IC** (at 0 0) (layer F.SilkS)
    (effects (font (size 1.27 1.27) (thickness 0.254)))
  )
  (fp_text value SOIC127P600X175-8N (at 0 0)(layer F.SilkS) hide
    (effects (font (size 1.27 1.27) (thickness 0.254)))
  )
  (fp_line (start -3.725 -2.75) (end 3.725 -2.75) (layer Dwgs.User) (width 0.05))
  (fp_line (start 3.725 -2.75) (end 3.725 2.75) (layer Dwgs.User) (width 0.05))
  (fp_line (start 3.725 2.75) (end -3.725 2.75) (layer Dwgs.User) (width 0.05))
  (fp_line (start -3.725 2.75) (end -3.725 -2.75) (layer Dwgs.User) (width 0.05))
  (fp_line (start -1.95 -2.45) (end 1.95 -2.45) (layer Dwgs.User) (width 0.1))
  (fp_line (start 1.95 -2.45) (end 1.95 2.45) (layer Dwgs.User) (width 0.1))
  (fp_line (start 1.95 2.45) (end -1.95 2.45) (layer Dwgs.User) (width 0.1))
  (fp_line (start -1.95 2.45) (end -1.95 -2.45) (layer Dwgs.User) (width 0.1))
  (fp_line (start -1.95 -1.18) (end -0.68 -2.45) (layer Dwgs.User) (width 0.1))
  (fp_line (start -1.6 -2.45) (end 1.6 -2.45) (layer F.SilkS) (width 0.2))
  (fp_line (start 1.6 -2.45) (end 1.6 2.45) (layer F.SilkS) (width 0.2))
  (fp_line (start 1.6 2.45) (end -1.6 2.45) (layer F.SilkS) (width 0.2))
  (fp_line (start -1.6 2.45) (end -1.6 -2.45) (layer F.SilkS) (width 0.2))
  (fp_line (start -3.475 -2.58) (end -1.95 -2.58) (layer F.SilkS) (width 0.2))
  (pad 1 smd rect (at -2.712 -1.905 90) (size 0.65 1.525) (layers F.Cu F.Paste))
  (pad 2 smd rect (at -2.712 -0.635 90) (size 0.65 1.525) (layers F.Cu F.Paste))
  (pad 3 smd rect (at -2.712 0.635 90) (size 0.65 1.525) (layers F.Cu F.Paste))
  (pad 4 smd rect (at -2.712 1.905 90) (size 0.65 1.525) (layers F.Cu F.Paste))
  (pad 5 smd rect (at 2.712 1.905 90) (size 0.65 1.525) (layers F.Cu F.Paste))
  (pad 6 smd rect (at 2.712 0.635 90) (size 0.65 1.525) (layers F.Cu F.Paste))
  (pad 7 smd rect (at 2.712 -0.635 90) (size 0.65 1.525) (layers F.Cu F.Paste))
  (pad 8 smd rect (at 2.712 -1.905 90) (size 0.65 1.525) (layers F.Cu F.Paste))
  (model "C:\\Users\\ritvi\\OneDrive - University of Illinois - Urbana\\UIUC\\2022_Spring\\ECE445\\intellisole\\boards\\IntelliSOLE\\library\\SamacSys_Parts.3dshapes\\NE555DR.stp"
    (at(xyz 0 0 0))
    (scale (xyz 1 1 1))
    (rotate(xyz 0 0 0))
  )
)
