(module "SODFL1608X70N" (layer F.Cu)
  (descr "SOD−523__")
  (tags "Schottky Diode")
  (attr smd)
  (fp_text reference D** (at 0 0) (layer F.SilkS)
    (effects (font (size 1.27 1.27) (thickness 0.254)))
  )
  (fp_text user %R (at 0 0) (layer F.Fab)
    (effects (font (size 1.27 1.27) (thickness 0.254)))
  )
  (fp_text value "SODFL1608X70N" (at 0 0) (layer F.SilkS) hide
    (effects (font (size 1.27 1.27) (thickness 0.254)))
  )
  (fp_line (start -1.22 -0.6) (end 1.22 -0.6) (layer F.CrtYd) (width 0.05))
  (fp_line (start 1.22 -0.6) (end 1.22 0.6) (layer F.CrtYd) (width 0.05))
  (fp_line (start 1.22 0.6) (end -1.22 0.6) (layer F.CrtYd) (width 0.05))
  (fp_line (start -1.22 0.6) (end -1.22 -0.6) (layer F.CrtYd) (width 0.05))
  (fp_line (start -0.6 -0.4) (end 0.6 -0.4) (layer F.Fab) (width 0.1))
  (fp_line (start 0.6 -0.4) (end 0.6 0.4) (layer F.Fab) (width 0.1))
  (fp_line (start 0.6 0.4) (end -0.6 0.4) (layer F.Fab) (width 0.1))
  (fp_line (start -0.6 0.4) (end -0.6 -0.4) (layer F.Fab) (width 0.1))
  (fp_line (start -0.6 -0.08) (end -0.28 -0.4) (layer F.Fab) (width 0.1))
  (fp_line (start -1.07 -0.4) (end 0.6 -0.4) (layer F.SilkS) (width 0.2))
  (fp_line (start -0.6 0.4) (end 0.6 0.4) (layer F.SilkS) (width 0.2))
  (pad 1 smd rect (at -0.75 0 90) (size 0.42 0.64) (layers F.Cu F.Paste F.Mask))
  (pad 2 smd rect (at 0.75 0 90) (size 0.42 0.64) (layers F.Cu F.Paste F.Mask))
  (model "C:\\Users\\ritvi\\OneDrive - University of Illinois - Urbana\\UIUC\\2022_Spring\\ECE445\\intellisole\\boards\\IntelliSOLE\\library\\SamacSys_Parts.3dshapes\\NSVRB751S40T1G.stp"
    (at (xyz 0 0 0))
    (scale (xyz 1 1 1))
    (rotate (xyz 0 0 0))
  )
)
