(kicad_sch (version 20211123) (generator eeschema)

  (uuid 6da753f1-f3ef-4a7c-a645-ac5d5eb2524c)

  (paper "A4")

  (lib_symbols
    (symbol "RF_Module:TR-52DA" (in_bom yes) (on_board yes)
      (property "Reference" "U" (id 0) (at -25.4 11.43 0)
        (effects (font (size 1.27 1.27)) (justify left))
      )
      (property "Value" "TR-52DA" (id 1) (at 25.4 11.43 0)
        (effects (font (size 1.27 1.27)) (justify right))
      )
      (property "Footprint" "RF_Module:IQRF_TRx2DA_KON-SIM-01" (id 2) (at -25.4 -11.43 0)
        (effects (font (size 1.27 1.27)) (justify left) hide)
      )
      (property "Datasheet" "https://iqrf.org/weben/downloads.php?id=213" (id 3) (at 25.4 -13.97 0)
        (effects (font (size 1.27 1.27)) (justify right) hide)
      )
      (property "ki_keywords" "IQRF common transceiver, PCB antenna, FSK modulation" (id 4) (at 0 0 0)
        (effects (font (size 1.27 1.27)) hide)
      )
      (property "ki_description" "IQRF common transceiver with PCB antenna, FSK modulation" (id 5) (at 0 0 0)
        (effects (font (size 1.27 1.27)) hide)
      )
      (property "ki_fp_filters" "IQRF?TRx2DA?KON?SIM?01*" (id 6) (at 0 0 0)
        (effects (font (size 1.27 1.27)) hide)
      )
      (symbol "TR-52DA_0_1"
        (rectangle (start -25.4 10.16) (end 25.4 -10.16)
          (stroke (width 0.254) (type default) (color 0 0 0 0))
          (fill (type background))
        )
      )
      (symbol "TR-52DA_1_1"
        (pin bidirectional line (at -27.94 2.54 0) (length 2.54)
          (name "RA0/AN0/C12IN0" (effects (font (size 1.27 1.27))))
          (number "C1" (effects (font (size 1.27 1.27))))
        )
        (pin bidirectional line (at -27.94 0 0) (length 2.54)
          (name "RC2/VOUT" (effects (font (size 1.27 1.27))))
          (number "C2" (effects (font (size 1.27 1.27))))
        )
        (pin power_in line (at 0 12.7 270) (length 2.54)
          (name "VIN" (effects (font (size 1.27 1.27))))
          (number "C3" (effects (font (size 1.27 1.27))))
        )
        (pin power_in line (at 0 -12.7 90) (length 2.54)
          (name "GND" (effects (font (size 1.27 1.27))))
          (number "C4" (effects (font (size 1.27 1.27))))
        )
        (pin bidirectional line (at 27.94 -2.54 180) (length 2.54)
          (name "RA5/RB4/RC6/AN4/AN11/TX/~{SS}/C2OUT/CCP3" (effects (font (size 1.27 1.27))))
          (number "C5" (effects (font (size 1.27 1.27))))
        )
        (pin bidirectional line (at 27.94 0 180) (length 2.54)
          (name "RC3/SCK/SCL" (effects (font (size 1.27 1.27))))
          (number "C6" (effects (font (size 1.27 1.27))))
        )
        (pin bidirectional line (at 27.94 2.54 180) (length 2.54)
          (name "RC4/SDI/SDA" (effects (font (size 1.27 1.27))))
          (number "C7" (effects (font (size 1.27 1.27))))
        )
        (pin bidirectional line (at 27.94 5.08 180) (length 2.54)
          (name "RC5/RC7/RX/SDO" (effects (font (size 1.27 1.27))))
          (number "C8" (effects (font (size 1.27 1.27))))
        )
      )
    )
    (symbol "power:+3.3V" (power) (pin_names (offset 0)) (in_bom yes) (on_board yes)
      (property "Reference" "#PWR" (id 0) (at 0 -3.81 0)
        (effects (font (size 1.27 1.27)) hide)
      )
      (property "Value" "+3.3V" (id 1) (at 0 3.556 0)
        (effects (font (size 1.27 1.27)))
      )
      (property "Footprint" "" (id 2) (at 0 0 0)
        (effects (font (size 1.27 1.27)) hide)
      )
      (property "Datasheet" "" (id 3) (at 0 0 0)
        (effects (font (size 1.27 1.27)) hide)
      )
      (property "ki_keywords" "power-flag" (id 4) (at 0 0 0)
        (effects (font (size 1.27 1.27)) hide)
      )
      (property "ki_description" "Power symbol creates a global label with name \"+3.3V\"" (id 5) (at 0 0 0)
        (effects (font (size 1.27 1.27)) hide)
      )
      (symbol "+3.3V_0_1"
        (polyline
          (pts
            (xy -0.762 1.27)
            (xy 0 2.54)
          )
          (stroke (width 0) (type default) (color 0 0 0 0))
          (fill (type none))
        )
        (polyline
          (pts
            (xy 0 0)
            (xy 0 2.54)
          )
          (stroke (width 0) (type default) (color 0 0 0 0))
          (fill (type none))
        )
        (polyline
          (pts
            (xy 0 2.54)
            (xy 0.762 1.27)
          )
          (stroke (width 0) (type default) (color 0 0 0 0))
          (fill (type none))
        )
      )
      (symbol "+3.3V_1_1"
        (pin power_in line (at 0 0 90) (length 0) hide
          (name "+3V3" (effects (font (size 1.27 1.27))))
          (number "1" (effects (font (size 1.27 1.27))))
        )
      )
    )
    (symbol "power:GND" (power) (pin_names (offset 0)) (in_bom yes) (on_board yes)
      (property "Reference" "#PWR" (id 0) (at 0 -6.35 0)
        (effects (font (size 1.27 1.27)) hide)
      )
      (property "Value" "GND" (id 1) (at 0 -3.81 0)
        (effects (font (size 1.27 1.27)))
      )
      (property "Footprint" "" (id 2) (at 0 0 0)
        (effects (font (size 1.27 1.27)) hide)
      )
      (property "Datasheet" "" (id 3) (at 0 0 0)
        (effects (font (size 1.27 1.27)) hide)
      )
      (property "ki_keywords" "power-flag" (id 4) (at 0 0 0)
        (effects (font (size 1.27 1.27)) hide)
      )
      (property "ki_description" "Power symbol creates a global label with name \"GND\" , ground" (id 5) (at 0 0 0)
        (effects (font (size 1.27 1.27)) hide)
      )
      (symbol "GND_0_1"
        (polyline
          (pts
            (xy 0 0)
            (xy 0 -1.27)
            (xy 1.27 -1.27)
            (xy 0 -2.54)
            (xy -1.27 -1.27)
            (xy 0 -1.27)
          )
          (stroke (width 0) (type default) (color 0 0 0 0))
          (fill (type none))
        )
      )
      (symbol "GND_1_1"
        (pin power_in line (at 0 0 270) (length 0) hide
          (name "GND" (effects (font (size 1.27 1.27))))
          (number "1" (effects (font (size 1.27 1.27))))
        )
      )
    )
  )


  (wire (pts (xy 134.62 102.87) (xy 134.62 109.22))
    (stroke (width 0) (type default) (color 0 0 0 0))
    (uuid 11c254fa-831e-4844-8d67-66e9b37c122b)
  )
  (wire (pts (xy 134.62 68.58) (xy 134.62 77.47))
    (stroke (width 0) (type default) (color 0 0 0 0))
    (uuid c686add0-8afa-43c9-a2d1-af21ebcbf661)
  )

  (symbol (lib_id "power:GND") (at 134.62 109.22 0) (unit 1)
    (in_bom yes) (on_board yes) (fields_autoplaced)
    (uuid 36e8eb8d-b20f-4059-b4bd-f8169c2a9a8b)
    (property "Reference" "#PWR0127" (id 0) (at 134.62 115.57 0)
      (effects (font (size 1.27 1.27)) hide)
    )
    (property "Value" "GND" (id 1) (at 134.62 114.3 0))
    (property "Footprint" "" (id 2) (at 134.62 109.22 0)
      (effects (font (size 1.27 1.27)) hide)
    )
    (property "Datasheet" "" (id 3) (at 134.62 109.22 0)
      (effects (font (size 1.27 1.27)) hide)
    )
    (pin "1" (uuid 5cdf6c01-b794-49c1-b865-689d2bb56a88))
  )

  (symbol (lib_id "power:+3.3V") (at 134.62 68.58 0) (unit 1)
    (in_bom yes) (on_board yes) (fields_autoplaced)
    (uuid eaa5d8ce-50e4-4560-bf35-ded1773ea5b1)
    (property "Reference" "#PWR0126" (id 0) (at 134.62 72.39 0)
      (effects (font (size 1.27 1.27)) hide)
    )
    (property "Value" "+3.3V" (id 1) (at 134.62 63.5 0))
    (property "Footprint" "" (id 2) (at 134.62 68.58 0)
      (effects (font (size 1.27 1.27)) hide)
    )
    (property "Datasheet" "" (id 3) (at 134.62 68.58 0)
      (effects (font (size 1.27 1.27)) hide)
    )
    (pin "1" (uuid 0274e85b-a221-4594-b35e-469051a35228))
  )

  (symbol (lib_id "RF_Module:TR-52DA") (at 134.62 90.17 0) (unit 1)
    (in_bom yes) (on_board yes) (fields_autoplaced)
    (uuid f2d201ea-d050-4595-9ca9-725c46100429)
    (property "Reference" "U7" (id 0) (at 136.6394 74.93 0)
      (effects (font (size 1.27 1.27)) (justify left))
    )
    (property "Value" "TR-52DA" (id 1) (at 136.6394 77.47 0)
      (effects (font (size 1.27 1.27)) (justify left))
    )
    (property "Footprint" "RF_Module:IQRF_TRx2DA_KON-SIM-01" (id 2) (at 109.22 101.6 0)
      (effects (font (size 1.27 1.27)) (justify left) hide)
    )
    (property "Datasheet" "https://iqrf.org/weben/downloads.php?id=213" (id 3) (at 160.02 104.14 0)
      (effects (font (size 1.27 1.27)) (justify right) hide)
    )
    (pin "C1" (uuid 7de887d4-da14-4b22-b372-4b04f388a01c))
    (pin "C2" (uuid aa579943-6256-421f-99a1-5324cbab689c))
    (pin "C3" (uuid 11c27008-7f57-4c97-8e78-104a00b57e21))
    (pin "C4" (uuid df69d4e4-80df-4941-9e37-c1292de22a0e))
    (pin "C5" (uuid c3b42dfd-ce96-4628-b908-9d21e2397845))
    (pin "C6" (uuid edf1a077-1088-4990-81c3-c25e6cc707f4))
    (pin "C7" (uuid 8df555a8-8fbe-4a70-abf3-a1df61d9b519))
    (pin "C8" (uuid 0af77c4b-93ab-4a5f-a0dc-d745ce2ad9af))
  )
)
