(kicad_sch (version 20211123) (generator eeschema)

  (uuid 7cb577dd-4c2f-4aac-86e9-615c8272ecef)

  (paper "A4")

  (lib_symbols
    (symbol "SamacSys_Parts:LM324PWRG3" (pin_names (offset 0.762)) (in_bom yes) (on_board yes)
      (property "Reference" "IC" (id 0) (at 24.13 7.62 0)
        (effects (font (size 1.27 1.27)) (justify left))
      )
      (property "Value" "LM324PWRG3" (id 1) (at 24.13 5.08 0)
        (effects (font (size 1.27 1.27)) (justify left))
      )
      (property "Footprint" "SOP65P640X120-14N" (id 2) (at 24.13 2.54 0)
        (effects (font (size 1.27 1.27)) (justify left) hide)
      )
      (property "Datasheet" "http://www.ti.com/lit/gpn/lm324" (id 3) (at 24.13 0 0)
        (effects (font (size 1.27 1.27)) (justify left) hide)
      )
      (property "Description" "QUADRUPLE OPERATIONAL AMPLIFIERS" (id 4) (at 24.13 -2.54 0)
        (effects (font (size 1.27 1.27)) (justify left) hide)
      )
      (property "Height" "1.2" (id 5) (at 24.13 -5.08 0)
        (effects (font (size 1.27 1.27)) (justify left) hide)
      )
      (property "Mouser Part Number" "595-LM324PWRG3" (id 6) (at 24.13 -7.62 0)
        (effects (font (size 1.27 1.27)) (justify left) hide)
      )
      (property "Mouser Price/Stock" "https://www.mouser.co.uk/ProductDetail/Texas-Instruments/LM324PWRG3?qs=C44r%252BX3hXgLCV17Qw8jk5A%3D%3D" (id 7) (at 24.13 -10.16 0)
        (effects (font (size 1.27 1.27)) (justify left) hide)
      )
      (property "Manufacturer_Name" "Texas Instruments" (id 8) (at 24.13 -12.7 0)
        (effects (font (size 1.27 1.27)) (justify left) hide)
      )
      (property "Manufacturer_Part_Number" "LM324PWRG3" (id 9) (at 24.13 -15.24 0)
        (effects (font (size 1.27 1.27)) (justify left) hide)
      )
      (property "ki_description" "QUADRUPLE OPERATIONAL AMPLIFIERS" (id 10) (at 0 0 0)
        (effects (font (size 1.27 1.27)) hide)
      )
      (symbol "LM324PWRG3_0_0"
        (pin passive line (at 0 0 0) (length 5.08)
          (name "1OUT" (effects (font (size 1.27 1.27))))
          (number "1" (effects (font (size 1.27 1.27))))
        )
        (pin passive line (at 27.94 -10.16 180) (length 5.08)
          (name "3IN+" (effects (font (size 1.27 1.27))))
          (number "10" (effects (font (size 1.27 1.27))))
        )
        (pin passive line (at 27.94 -7.62 180) (length 5.08)
          (name "GND" (effects (font (size 1.27 1.27))))
          (number "11" (effects (font (size 1.27 1.27))))
        )
        (pin passive line (at 27.94 -5.08 180) (length 5.08)
          (name "4IN+" (effects (font (size 1.27 1.27))))
          (number "12" (effects (font (size 1.27 1.27))))
        )
        (pin passive line (at 27.94 -2.54 180) (length 5.08)
          (name "4IN-" (effects (font (size 1.27 1.27))))
          (number "13" (effects (font (size 1.27 1.27))))
        )
        (pin passive line (at 27.94 0 180) (length 5.08)
          (name "4OUT" (effects (font (size 1.27 1.27))))
          (number "14" (effects (font (size 1.27 1.27))))
        )
        (pin passive line (at 0 -2.54 0) (length 5.08)
          (name "1IN-" (effects (font (size 1.27 1.27))))
          (number "2" (effects (font (size 1.27 1.27))))
        )
        (pin passive line (at 0 -5.08 0) (length 5.08)
          (name "1IN+" (effects (font (size 1.27 1.27))))
          (number "3" (effects (font (size 1.27 1.27))))
        )
        (pin passive line (at 0 -7.62 0) (length 5.08)
          (name "VCC" (effects (font (size 1.27 1.27))))
          (number "4" (effects (font (size 1.27 1.27))))
        )
        (pin passive line (at 0 -10.16 0) (length 5.08)
          (name "2IN+" (effects (font (size 1.27 1.27))))
          (number "5" (effects (font (size 1.27 1.27))))
        )
        (pin passive line (at 0 -12.7 0) (length 5.08)
          (name "2IN-" (effects (font (size 1.27 1.27))))
          (number "6" (effects (font (size 1.27 1.27))))
        )
        (pin passive line (at 0 -15.24 0) (length 5.08)
          (name "2OUT" (effects (font (size 1.27 1.27))))
          (number "7" (effects (font (size 1.27 1.27))))
        )
        (pin passive line (at 27.94 -15.24 180) (length 5.08)
          (name "3OUT" (effects (font (size 1.27 1.27))))
          (number "8" (effects (font (size 1.27 1.27))))
        )
        (pin passive line (at 27.94 -12.7 180) (length 5.08)
          (name "3IN-" (effects (font (size 1.27 1.27))))
          (number "9" (effects (font (size 1.27 1.27))))
        )
      )
      (symbol "LM324PWRG3_0_1"
        (polyline
          (pts
            (xy 5.08 2.54)
            (xy 22.86 2.54)
            (xy 22.86 -17.78)
            (xy 5.08 -17.78)
            (xy 5.08 2.54)
          )
          (stroke (width 0.1524) (type default) (color 0 0 0 0))
          (fill (type none))
        )
      )
    )
  )


  (no_connect (at 229.87 78.74) (uuid 15913981-6506-4cf9-9521-6abc781b838d))
  (no_connect (at 229.87 68.58) (uuid 9decdb5f-ac53-4beb-bee0-c66e0d524afc))
  (no_connect (at 229.87 76.2) (uuid ad8a7a1d-c581-40c1-8b92-211ee83f20b9))
  (no_connect (at 229.87 63.5) (uuid bb2b1a0b-9663-41a7-b19c-fff26c7a1114))
  (no_connect (at 229.87 66.04) (uuid dd05d829-709f-4f75-9997-eede81d04321))
  (no_connect (at 229.87 73.66) (uuid dd1aba27-ec80-4e9b-a065-b4197b8eae9b))

  (wire (pts (xy 170.18 52.07) (xy 175.26 52.07))
    (stroke (width 0) (type default) (color 0 0 0 0))
    (uuid 0b5a4fe8-f68a-4ca3-a2cf-e4e784e536fa)
  )
  (wire (pts (xy 135.89 96.52) (xy 142.24 96.52))
    (stroke (width 0) (type default) (color 0 0 0 0))
    (uuid 177b7b90-2e57-48d8-ade6-f224562b5657)
  )
  (wire (pts (xy 77.47 92.71) (xy 81.28 92.71))
    (stroke (width 0) (type default) (color 0 0 0 0))
    (uuid 22de4e1b-242d-46d7-96cf-b146178aa75f)
  )
  (wire (pts (xy 115.57 35.56) (xy 121.92 35.56))
    (stroke (width 0) (type default) (color 0 0 0 0))
    (uuid 279a96c1-04aa-444c-8efb-5cd8057fdda3)
  )
  (wire (pts (xy 77.47 83.82) (xy 83.82 83.82))
    (stroke (width 0) (type default) (color 0 0 0 0))
    (uuid 293b7fb0-da3b-4fc7-9db0-5fc8041cce06)
  )
  (wire (pts (xy 63.5 27.94) (xy 69.85 27.94))
    (stroke (width 0) (type default) (color 0 0 0 0))
    (uuid 2c6f8b00-72c1-4379-8e3c-38ac431781c6)
  )
  (wire (pts (xy 115.57 44.45) (xy 118.11 44.45))
    (stroke (width 0) (type default) (color 0 0 0 0))
    (uuid 3a9d57e9-7e4f-4e6e-9114-790bba143c33)
  )
  (wire (pts (xy 115.57 38.1) (xy 118.11 38.1))
    (stroke (width 0) (type default) (color 0 0 0 0))
    (uuid 440f0378-2446-4a82-8f95-92b69e5453f9)
  )
  (wire (pts (xy 105.41 146.05) (xy 111.76 146.05))
    (stroke (width 0) (type default) (color 0 0 0 0))
    (uuid 4c70e296-ce98-48ce-aac0-5889a325da57)
  )
  (wire (pts (xy 115.57 49.53) (xy 121.92 49.53))
    (stroke (width 0) (type default) (color 0 0 0 0))
    (uuid 51f78e1d-af4f-44f1-bccb-8b3a722d0770)
  )
  (wire (pts (xy 170.18 43.18) (xy 175.26 43.18))
    (stroke (width 0) (type default) (color 0 0 0 0))
    (uuid 544f111e-9cc9-4a71-b4a8-c2437300cd5e)
  )
  (wire (pts (xy 135.89 102.87) (xy 140.97 102.87))
    (stroke (width 0) (type default) (color 0 0 0 0))
    (uuid 581249bf-570c-4c2c-a6ba-4ef950ab5f08)
  )
  (wire (pts (xy 105.41 157.48) (xy 107.95 157.48))
    (stroke (width 0) (type default) (color 0 0 0 0))
    (uuid 5fc76906-bd4e-40ab-9d2c-d837b2a6d968)
  )
  (wire (pts (xy 105.41 160.02) (xy 111.76 160.02))
    (stroke (width 0) (type default) (color 0 0 0 0))
    (uuid 627ffa1b-db1c-4787-80c2-f7df1ae101e1)
  )
  (wire (pts (xy 170.18 54.61) (xy 176.53 54.61))
    (stroke (width 0) (type default) (color 0 0 0 0))
    (uuid 6efbc8a8-9332-4741-a92a-cc634d2e82c1)
  )
  (wire (pts (xy 170.18 40.64) (xy 176.53 40.64))
    (stroke (width 0) (type default) (color 0 0 0 0))
    (uuid 6ff27d61-0689-4e53-95b4-96f0b864fdfc)
  )
  (wire (pts (xy 115.57 41.91) (xy 119.38 41.91))
    (stroke (width 0) (type default) (color 0 0 0 0))
    (uuid 7754a964-e9ef-49d5-93b9-56e5e5e14fb0)
  )
  (wire (pts (xy 105.41 154.94) (xy 107.95 154.94))
    (stroke (width 0) (type default) (color 0 0 0 0))
    (uuid 7b396986-6b4d-42e8-b6a6-e869082f32a3)
  )
  (wire (pts (xy 170.18 46.99) (xy 176.53 46.99))
    (stroke (width 0) (type default) (color 0 0 0 0))
    (uuid 87f58ff3-1528-457b-a81b-045eaf36d796)
  )
  (wire (pts (xy 135.89 105.41) (xy 139.7 105.41))
    (stroke (width 0) (type default) (color 0 0 0 0))
    (uuid 8bcf08b2-a4af-4d01-9fc8-e995fe256938)
  )
  (wire (pts (xy 135.89 99.06) (xy 139.7 99.06))
    (stroke (width 0) (type default) (color 0 0 0 0))
    (uuid 8f5f0521-ac36-4368-9a57-8fdcd1970ab2)
  )
  (wire (pts (xy 77.47 95.25) (xy 81.28 95.25))
    (stroke (width 0) (type default) (color 0 0 0 0))
    (uuid 9f1e24eb-3e2d-47a0-b70c-968ffdea5ff6)
  )
  (wire (pts (xy 115.57 46.99) (xy 118.11 46.99))
    (stroke (width 0) (type default) (color 0 0 0 0))
    (uuid b438f102-6912-4bf5-a545-a2cc60a670ac)
  )
  (wire (pts (xy 170.18 49.53) (xy 175.26 49.53))
    (stroke (width 0) (type default) (color 0 0 0 0))
    (uuid b53120de-c682-4ed6-aa35-4cd61b1cf33b)
  )
  (wire (pts (xy 77.47 97.79) (xy 83.82 97.79))
    (stroke (width 0) (type default) (color 0 0 0 0))
    (uuid ba93df9d-13bf-4aaa-a786-ffdc2e0769ab)
  )
  (wire (pts (xy 135.89 107.95) (xy 139.7 107.95))
    (stroke (width 0) (type default) (color 0 0 0 0))
    (uuid bc9b910a-3032-4d9a-a51d-92b7f1867da4)
  )
  (wire (pts (xy 232.41 40.64) (xy 229.87 40.64))
    (stroke (width 0) (type default) (color 0 0 0 0))
    (uuid c152467c-3886-43b6-81a3-c754c18d22f9)
  )
  (wire (pts (xy 63.5 21.59) (xy 69.85 21.59))
    (stroke (width 0) (type default) (color 0 0 0 0))
    (uuid d40a2a61-49d9-451b-a010-86f083480078)
  )
  (wire (pts (xy 77.47 90.17) (xy 81.28 90.17))
    (stroke (width 0) (type default) (color 0 0 0 0))
    (uuid d6a334a3-53f5-4547-83d2-07c6c5691585)
  )
  (wire (pts (xy 63.5 35.56) (xy 69.85 35.56))
    (stroke (width 0) (type default) (color 0 0 0 0))
    (uuid d6adc0f2-6a9d-4380-81b7-d53d0e5ab684)
  )
  (wire (pts (xy 135.89 110.49) (xy 142.24 110.49))
    (stroke (width 0) (type default) (color 0 0 0 0))
    (uuid d8a3606b-5ca4-41e0-9287-f39217e97c3a)
  )
  (wire (pts (xy 199.39 40.64) (xy 201.93 40.64))
    (stroke (width 0) (type default) (color 0 0 0 0))
    (uuid dc48322e-bac7-453c-92b5-de4e8201bc96)
  )
  (wire (pts (xy 105.41 148.59) (xy 107.95 148.59))
    (stroke (width 0) (type default) (color 0 0 0 0))
    (uuid de8327b3-d7b1-4418-99d4-92054c8343ab)
  )
  (wire (pts (xy 105.41 152.4) (xy 109.22 152.4))
    (stroke (width 0) (type default) (color 0 0 0 0))
    (uuid ed02261a-5adf-4ac3-b5bb-d3939986a1cb)
  )
  (wire (pts (xy 77.47 86.36) (xy 81.28 86.36))
    (stroke (width 0) (type default) (color 0 0 0 0))
    (uuid f1fb2e0d-ed35-47e2-b443-1678671e7c51)
  )

  (label "OP-_5" (at 201.93 66.04 180)
    (effects (font (size 1.27 1.27)) (justify right bottom))
    (uuid 0676e79a-9107-4d4e-bac7-9d6ffbb96161)
  )
  (label "OP-_5" (at 139.7 105.41 0)
    (effects (font (size 1.27 1.27)) (justify left bottom))
    (uuid 181180e9-7fdd-4cea-9f7c-721879c91fa4)
  )
  (label "OP+_2" (at 201.93 45.72 180)
    (effects (font (size 1.27 1.27)) (justify right bottom))
    (uuid 2353229a-7692-4215-a383-6c63c683a131)
  )
  (label "OP-_2" (at 201.93 43.18 180)
    (effects (font (size 1.27 1.27)) (justify right bottom))
    (uuid 2db07d62-e545-4a66-ae15-a7da393b8e25)
  )
  (label "OP+_4" (at 81.28 95.25 0)
    (effects (font (size 1.27 1.27)) (justify left bottom))
    (uuid 30c14b7d-2fde-4b94-8f50-eb36d32b9407)
  )
  (label "OP+_5" (at 139.7 107.95 0)
    (effects (font (size 1.27 1.27)) (justify left bottom))
    (uuid 34385ed8-d71a-432b-b306-a425a5e73160)
  )
  (label "OP_OUT_1" (at 201.93 33.02 180)
    (effects (font (size 1.27 1.27)) (justify right bottom))
    (uuid 373ca015-6d6c-4185-b9a1-c4f84dd5d94b)
  )
  (label "OP+_3" (at 229.87 43.18 0)
    (effects (font (size 1.27 1.27)) (justify left bottom))
    (uuid 3e4443b8-8214-48f0-aa9a-6eea3e782ce8)
  )
  (label "OP+_1" (at 201.93 38.1 180)
    (effects (font (size 1.27 1.27)) (justify right bottom))
    (uuid 3e813255-86f5-46fe-868f-4d82880cc99c)
  )
  (label "OP-_3" (at 175.26 49.53 0)
    (effects (font (size 1.27 1.27)) (justify left bottom))
    (uuid 3f430523-49b3-4458-af50-ad03c9bec454)
  )
  (label "OP_OUT_3" (at 229.87 48.26 0)
    (effects (font (size 1.27 1.27)) (justify left bottom))
    (uuid 48bfa55c-c07b-4269-8774-941a562d7662)
  )
  (label "OP-_1" (at 63.5 30.48 0)
    (effects (font (size 1.27 1.27)) (justify left bottom))
    (uuid 4b80a87b-b5fe-401c-a533-a2f046c2be92)
  )
  (label "OP_OUT_2" (at 201.93 48.26 180)
    (effects (font (size 1.27 1.27)) (justify right bottom))
    (uuid 51e4f618-6081-407c-bf03-60e41a9b9d73)
  )
  (label "OP_OUT_3" (at 175.26 43.18 0)
    (effects (font (size 1.27 1.27)) (justify left bottom))
    (uuid 589c64a8-5aa5-456a-a0e2-447a53fbe36e)
  )
  (label "OP_OUT_6" (at 201.93 78.74 180)
    (effects (font (size 1.27 1.27)) (justify right bottom))
    (uuid 59021e7f-926c-439a-b5c5-0bb1f126a691)
  )
  (label "OP-_1" (at 201.93 35.56 180)
    (effects (font (size 1.27 1.27)) (justify right bottom))
    (uuid 5b7e5547-ede6-4c49-89f0-8ba26565dcd9)
  )
  (label "OP_OUT_2" (at 118.11 38.1 0)
    (effects (font (size 1.27 1.27)) (justify left bottom))
    (uuid 66d36e14-da77-4030-9d61-c24348e7e87d)
  )
  (label "OP_OUT_1" (at 63.5 24.13 0)
    (effects (font (size 1.27 1.27)) (justify left bottom))
    (uuid 677e3b21-5d65-4191-8c41-6570809e16da)
  )
  (label "OP-_4" (at 229.87 38.1 0)
    (effects (font (size 1.27 1.27)) (justify left bottom))
    (uuid 70fa9040-3500-46c9-a278-dfe642e6d190)
  )
  (label "OP-_6" (at 107.95 154.94 0)
    (effects (font (size 1.27 1.27)) (justify left bottom))
    (uuid 7828a3f5-a355-450c-a7ae-dd8ff6a76bf9)
  )
  (label "OP-_4" (at 81.28 92.71 0)
    (effects (font (size 1.27 1.27)) (justify left bottom))
    (uuid 791ea95a-adb0-4a74-b425-5da53ce974df)
  )
  (label "OP_OUT_6" (at 107.95 148.59 0)
    (effects (font (size 1.27 1.27)) (justify left bottom))
    (uuid 878e8cef-1302-4da8-a3b0-2a15cd1ec6fa)
  )
  (label "OP-_6" (at 201.93 73.66 180)
    (effects (font (size 1.27 1.27)) (justify right bottom))
    (uuid 8c130673-5df3-4a2f-9e12-9a9ef248f224)
  )
  (label "OP+_2" (at 118.11 46.99 0)
    (effects (font (size 1.27 1.27)) (justify left bottom))
    (uuid 92058746-b22d-456d-a76d-0dc4d738f153)
  )
  (label "OP_OUT_5" (at 201.93 63.5 180)
    (effects (font (size 1.27 1.27)) (justify right bottom))
    (uuid 96eb4f87-880a-4088-a6dd-be05ecc0b313)
  )
  (label "OP+_6" (at 107.95 157.48 0)
    (effects (font (size 1.27 1.27)) (justify left bottom))
    (uuid 9b2a1293-2b22-4659-b392-3832cceb5de0)
  )
  (label "OP-_3" (at 229.87 45.72 0)
    (effects (font (size 1.27 1.27)) (justify left bottom))
    (uuid aea4175a-22ee-44bd-b946-30ee5c32d90c)
  )
  (label "OP+_6" (at 201.93 76.2 180)
    (effects (font (size 1.27 1.27)) (justify right bottom))
    (uuid b064d93e-bd0b-434b-b955-0d0f25587743)
  )
  (label "OP+_3" (at 175.26 52.07 0)
    (effects (font (size 1.27 1.27)) (justify left bottom))
    (uuid b39a9de3-a5b2-45ea-86d0-a0cf07fa63b4)
  )
  (label "OP+_4" (at 229.87 35.56 0)
    (effects (font (size 1.27 1.27)) (justify left bottom))
    (uuid d829cec9-cba8-46cd-ac4f-1362221b9cd2)
  )
  (label "OP_OUT_4" (at 81.28 86.36 0)
    (effects (font (size 1.27 1.27)) (justify left bottom))
    (uuid da1211a8-a21d-4e71-9990-ca605c3a03d8)
  )
  (label "OP-_2" (at 118.11 44.45 0)
    (effects (font (size 1.27 1.27)) (justify left bottom))
    (uuid e0946890-26fd-452b-a12a-4098cb19055a)
  )
  (label "OP+_5" (at 201.93 68.58 180)
    (effects (font (size 1.27 1.27)) (justify right bottom))
    (uuid e40aa6f9-bb90-4e85-a064-f6dfe3c0cc74)
  )
  (label "OP_OUT_4" (at 229.87 33.02 0)
    (effects (font (size 1.27 1.27)) (justify left bottom))
    (uuid e954c9ec-0092-4c16-8819-21357ce7bf5c)
  )
  (label "OP+_1" (at 63.5 33.02 0)
    (effects (font (size 1.27 1.27)) (justify left bottom))
    (uuid ebec977a-16f5-44b0-8ae9-4d278843557e)
  )
  (label "OP_OUT_5" (at 139.7 99.06 0)
    (effects (font (size 1.27 1.27)) (justify left bottom))
    (uuid fe71308c-d9eb-44eb-8d6c-f56aca63f23c)
  )

  (hierarchical_label "GND" (shape passive) (at 121.92 49.53 0)
    (effects (font (size 1.27 1.27)) (justify left))
    (uuid 08715f11-cd80-4cd4-91d5-e749abc24dc9)
  )
  (hierarchical_label "DATA6" (shape output) (at 109.22 152.4 0)
    (effects (font (size 1.27 1.27)) (justify left))
    (uuid 0f4500bc-f209-4f2c-a732-14ea1088f1e4)
  )
  (hierarchical_label "GND" (shape passive) (at 142.24 110.49 0)
    (effects (font (size 1.27 1.27)) (justify left))
    (uuid 14144421-3bb8-4f12-a5b3-28fd3417c5dc)
  )
  (hierarchical_label "DATA3" (shape output) (at 176.53 46.99 0)
    (effects (font (size 1.27 1.27)) (justify left))
    (uuid 23293731-2bc9-43e3-83e6-99740ab84065)
  )
  (hierarchical_label "5V" (shape input) (at 142.24 96.52 0)
    (effects (font (size 1.27 1.27)) (justify left))
    (uuid 2408025f-58e7-4bba-b617-15c97f7b29df)
  )
  (hierarchical_label "5V" (shape input) (at 121.92 35.56 0)
    (effects (font (size 1.27 1.27)) (justify left))
    (uuid 25cc1900-d1fc-4804-a751-86258ffb6f3d)
  )
  (hierarchical_label "DATA2" (shape output) (at 119.38 41.91 0)
    (effects (font (size 1.27 1.27)) (justify left))
    (uuid 267a80a5-7e25-409a-a2f6-f9222b5a6dc3)
  )
  (hierarchical_label "5V" (shape input) (at 83.82 83.82 0)
    (effects (font (size 1.27 1.27)) (justify left))
    (uuid 2715692f-8a61-4733-aacb-90026cf7f8f5)
  )
  (hierarchical_label "GND" (shape passive) (at 69.85 35.56 0)
    (effects (font (size 1.27 1.27)) (justify left))
    (uuid 3227f9bf-91f2-46d4-88cc-3e4e2c06d58e)
  )
  (hierarchical_label "GND" (shape passive) (at 232.41 40.64 0)
    (effects (font (size 1.27 1.27)) (justify left))
    (uuid 41333836-dc78-4ec3-9841-db6d9b0b2fed)
  )
  (hierarchical_label "DATA5" (shape output) (at 140.97 102.87 0)
    (effects (font (size 1.27 1.27)) (justify left))
    (uuid 4d8dd0a1-a5ef-4204-8e55-2f348efccb88)
  )
  (hierarchical_label "GND" (shape passive) (at 229.87 71.12 0)
    (effects (font (size 1.27 1.27)) (justify left))
    (uuid 56491bb3-511b-4ec1-8ce2-4554140201f3)
  )
  (hierarchical_label "GND" (shape passive) (at 111.76 160.02 0)
    (effects (font (size 1.27 1.27)) (justify left))
    (uuid 5f7e97d0-886d-44d0-9593-f62d58b70c2e)
  )
  (hierarchical_label "5V" (shape input) (at 69.85 21.59 0)
    (effects (font (size 1.27 1.27)) (justify left))
    (uuid 6c08dfc1-037c-470e-9d9a-72e6b108c3ed)
  )
  (hierarchical_label "5V" (shape input) (at 111.76 146.05 0)
    (effects (font (size 1.27 1.27)) (justify left))
    (uuid 7f3a038d-a0f5-40a9-97a2-f0aa4ebd6a30)
  )
  (hierarchical_label "5V" (shape input) (at 201.93 71.12 180)
    (effects (font (size 1.27 1.27)) (justify right))
    (uuid 86c1706d-3748-41bf-a5d9-a4ab971b4d33)
  )
  (hierarchical_label "5V" (shape input) (at 176.53 40.64 0)
    (effects (font (size 1.27 1.27)) (justify left))
    (uuid 90f44b76-59ce-4d33-b22b-0270e209288c)
  )
  (hierarchical_label "GND" (shape passive) (at 83.82 97.79 0)
    (effects (font (size 1.27 1.27)) (justify left))
    (uuid 9a0fd755-d37e-4523-91d5-381277332408)
  )
  (hierarchical_label "GND" (shape passive) (at 176.53 54.61 0)
    (effects (font (size 1.27 1.27)) (justify left))
    (uuid c77ddfba-6b33-48e6-85a4-fa3002b499b6)
  )
  (hierarchical_label "5V" (shape input) (at 199.39 40.64 180)
    (effects (font (size 1.27 1.27)) (justify right))
    (uuid c8e9b22a-3907-46d5-8385-9fb623fe2156)
  )
  (hierarchical_label "DATA4" (shape output) (at 81.28 90.17 0)
    (effects (font (size 1.27 1.27)) (justify left))
    (uuid f9d715e2-873c-4961-9ab4-aa2af6b543cd)
  )
  (hierarchical_label "DATA1" (shape output) (at 69.85 27.94 0)
    (effects (font (size 1.27 1.27)) (justify left))
    (uuid ff751762-332c-4d22-be0a-5166a4158b76)
  )

  (symbol (lib_id "SamacSys_Parts:LM324PWRG3") (at 201.93 63.5 0) (unit 1)
    (in_bom yes) (on_board yes) (fields_autoplaced)
    (uuid 5b284df3-9214-4e9b-a018-9da87c4956f1)
    (property "Reference" "IC5" (id 0) (at 215.9 55.88 0))
    (property "Value" "LM324PWRG3" (id 1) (at 215.9 58.42 0))
    (property "Footprint" "SamacSys_Parts:SOP65P640X120-14N" (id 2) (at 226.06 60.96 0)
      (effects (font (size 1.27 1.27)) (justify left) hide)
    )
    (property "Datasheet" "http://www.ti.com/lit/gpn/lm324" (id 3) (at 226.06 63.5 0)
      (effects (font (size 1.27 1.27)) (justify left) hide)
    )
    (property "Description" "QUADRUPLE OPERATIONAL AMPLIFIERS" (id 4) (at 226.06 66.04 0)
      (effects (font (size 1.27 1.27)) (justify left) hide)
    )
    (property "Height" "1.2" (id 5) (at 226.06 68.58 0)
      (effects (font (size 1.27 1.27)) (justify left) hide)
    )
    (property "Mouser Part Number" "595-LM324PWRG3" (id 6) (at 226.06 71.12 0)
      (effects (font (size 1.27 1.27)) (justify left) hide)
    )
    (property "Mouser Price/Stock" "https://www.mouser.co.uk/ProductDetail/Texas-Instruments/LM324PWRG3?qs=C44r%252BX3hXgLCV17Qw8jk5A%3D%3D" (id 7) (at 226.06 73.66 0)
      (effects (font (size 1.27 1.27)) (justify left) hide)
    )
    (property "Manufacturer_Name" "Texas Instruments" (id 8) (at 226.06 76.2 0)
      (effects (font (size 1.27 1.27)) (justify left) hide)
    )
    (property "Manufacturer_Part_Number" "LM324PWRG3" (id 9) (at 226.06 78.74 0)
      (effects (font (size 1.27 1.27)) (justify left) hide)
    )
    (pin "1" (uuid 1e4443ee-c2f5-4022-bc95-5ad40a7818d7))
    (pin "10" (uuid 172ad91e-1d84-4dae-bfd3-b3e473645347))
    (pin "11" (uuid 5e6b143b-d272-475b-a05a-591b5bd1cc54))
    (pin "12" (uuid 7513cc77-3c34-459c-8da3-1e803031ea7c))
    (pin "13" (uuid aa0d553c-07eb-4e74-9dea-62e1518ea2d8))
    (pin "14" (uuid bdf8e7df-e5fe-43b0-bfea-6121cc5ba921))
    (pin "2" (uuid 41a23ed1-1dc2-4aa2-8e40-bce45ae28a7d))
    (pin "3" (uuid 6b2b529e-744b-4991-a5cc-68b7e1e2096a))
    (pin "4" (uuid fb361ba8-b9e7-46d0-9de1-79b686fa7d7e))
    (pin "5" (uuid 36bc0f76-d0a2-4e86-9fc2-1c2d10268a05))
    (pin "6" (uuid a5114ed2-33d2-48d2-8b24-e397da91717e))
    (pin "7" (uuid fba1615a-06d1-4eb5-9627-edd304a7d680))
    (pin "8" (uuid 863e7bc3-e061-43b5-88d0-e06bdc82a456))
    (pin "9" (uuid 4acd06dc-633e-40fe-b785-1a5f7f0a67e5))
  )

  (symbol (lib_id "SamacSys_Parts:LM324PWRG3") (at 201.93 33.02 0) (unit 1)
    (in_bom yes) (on_board yes) (fields_autoplaced)
    (uuid d481b6ed-27ba-4704-9192-5867cb4fee5a)
    (property "Reference" "IC4" (id 0) (at 215.9 25.4 0))
    (property "Value" "LM324PWRG3" (id 1) (at 215.9 27.94 0))
    (property "Footprint" "SamacSys_Parts:SOP65P640X120-14N" (id 2) (at 226.06 30.48 0)
      (effects (font (size 1.27 1.27)) (justify left) hide)
    )
    (property "Datasheet" "http://www.ti.com/lit/gpn/lm324" (id 3) (at 226.06 33.02 0)
      (effects (font (size 1.27 1.27)) (justify left) hide)
    )
    (property "Description" "QUADRUPLE OPERATIONAL AMPLIFIERS" (id 4) (at 226.06 35.56 0)
      (effects (font (size 1.27 1.27)) (justify left) hide)
    )
    (property "Height" "1.2" (id 5) (at 226.06 38.1 0)
      (effects (font (size 1.27 1.27)) (justify left) hide)
    )
    (property "Mouser Part Number" "595-LM324PWRG3" (id 6) (at 226.06 40.64 0)
      (effects (font (size 1.27 1.27)) (justify left) hide)
    )
    (property "Mouser Price/Stock" "https://www.mouser.co.uk/ProductDetail/Texas-Instruments/LM324PWRG3?qs=C44r%252BX3hXgLCV17Qw8jk5A%3D%3D" (id 7) (at 226.06 43.18 0)
      (effects (font (size 1.27 1.27)) (justify left) hide)
    )
    (property "Manufacturer_Name" "Texas Instruments" (id 8) (at 226.06 45.72 0)
      (effects (font (size 1.27 1.27)) (justify left) hide)
    )
    (property "Manufacturer_Part_Number" "LM324PWRG3" (id 9) (at 226.06 48.26 0)
      (effects (font (size 1.27 1.27)) (justify left) hide)
    )
    (pin "1" (uuid 79b1c1d8-0f26-48b2-90f9-bae5813c2d00))
    (pin "10" (uuid d4ad2911-8e83-4982-9e82-3f5dff298122))
    (pin "11" (uuid e67ce747-97d4-4004-b8bb-e2f6c186fd06))
    (pin "12" (uuid 74b34e71-4f81-47c8-bccc-f058c60cd83b))
    (pin "13" (uuid 409778a1-5443-411d-ad65-f32eb10284a2))
    (pin "14" (uuid b9a0334d-bdef-4a17-b1f8-bd23dddc43b5))
    (pin "2" (uuid 21416bcd-6cb8-452b-b75f-8f826cf844eb))
    (pin "3" (uuid 39630cc6-2413-4228-a7fa-01e359b9666b))
    (pin "4" (uuid ff06403d-8108-41b3-acce-a1910383c409))
    (pin "5" (uuid 679283ad-f059-461f-87f9-87b8bc7e9384))
    (pin "6" (uuid 16a0e415-a854-480f-b4c7-6bce31b58bb0))
    (pin "7" (uuid c04a4679-e3e5-4954-b015-6f8212e8d7c2))
    (pin "8" (uuid 4cbef7ee-f9f5-4557-8821-318e9bd2a82b))
    (pin "9" (uuid e58f63a4-96df-42fc-8b5a-0fdd5813e2ed))
  )

  (sheet (at 38.1 17.78) (size 25.4 20.32) (fields_autoplaced)
    (stroke (width 0.1524) (type solid) (color 0 0 0 0))
    (fill (color 0 0 0 0.0000))
    (uuid 10cc7796-4b5f-4694-abe5-80ed94953cd1)
    (property "Sheet name" "Sensor1" (id 0) (at 38.1 17.0684 0)
      (effects (font (size 1.27 1.27)) (justify left bottom))
    )
    (property "Sheet file" "Sensor.kicad_sch" (id 1) (at 38.1 38.6846 0)
      (effects (font (size 1.27 1.27)) (justify left top))
    )
    (pin "Sensor_Data" output (at 63.5 27.94 0)
      (effects (font (size 1.27 1.27)) (justify right))
      (uuid b7da9a6e-a67a-4a1b-a480-559ce1438a89)
    )
    (pin "GND" output (at 63.5 35.56 0)
      (effects (font (size 1.27 1.27)) (justify right))
      (uuid 9e8e492e-67a8-4bb3-9860-d8ed2d65af82)
    )
    (pin "5V" input (at 63.5 21.59 0)
      (effects (font (size 1.27 1.27)) (justify right))
      (uuid 54165b82-a841-4b6e-a0de-e85a8efb5aef)
    )
    (pin "OP-" output (at 63.5 30.48 0)
      (effects (font (size 1.27 1.27)) (justify right))
      (uuid e85d6fb2-97f5-476b-8dc9-3e8764820576)
    )
    (pin "OP+" output (at 63.5 33.02 0)
      (effects (font (size 1.27 1.27)) (justify right))
      (uuid 5fef811e-34a7-4a69-a733-21e95dfd63b8)
    )
    (pin "OP_OUT" input (at 63.5 24.13 0)
      (effects (font (size 1.27 1.27)) (justify right))
      (uuid 7b40de45-e037-4366-8e2e-e39a1584ae42)
    )
  )

  (sheet (at 144.78 36.83) (size 25.4 20.32) (fields_autoplaced)
    (stroke (width 0.1524) (type solid) (color 0 0 0 0))
    (fill (color 0 0 0 0.0000))
    (uuid 7cb27b74-c53f-48a3-85b8-eec340f4cd7a)
    (property "Sheet name" "Sensor3" (id 0) (at 144.78 36.1184 0)
      (effects (font (size 1.27 1.27)) (justify left bottom))
    )
    (property "Sheet file" "Sensor.kicad_sch" (id 1) (at 144.78 57.7346 0)
      (effects (font (size 1.27 1.27)) (justify left top))
    )
    (pin "Sensor_Data" output (at 170.18 46.99 0)
      (effects (font (size 1.27 1.27)) (justify right))
      (uuid e2e1731b-2329-46a5-afd1-f81144a985bb)
    )
    (pin "GND" output (at 170.18 54.61 0)
      (effects (font (size 1.27 1.27)) (justify right))
      (uuid cedcd69b-8edf-48fa-a416-b9f82f8dca4f)
    )
    (pin "5V" input (at 170.18 40.64 0)
      (effects (font (size 1.27 1.27)) (justify right))
      (uuid aa85ce75-d5d0-4140-8991-28cce6c507fc)
    )
    (pin "OP-" output (at 170.18 49.53 0)
      (effects (font (size 1.27 1.27)) (justify right))
      (uuid 9fde8e8b-ee03-435e-be73-066a7515210b)
    )
    (pin "OP+" output (at 170.18 52.07 0)
      (effects (font (size 1.27 1.27)) (justify right))
      (uuid 9c7108d6-8f1b-4092-8a62-3e952eea4b21)
    )
    (pin "OP_OUT" input (at 170.18 43.18 0)
      (effects (font (size 1.27 1.27)) (justify right))
      (uuid e88c42f8-4441-4d62-b08b-113d825e34af)
    )
  )

  (sheet (at 110.49 92.71) (size 25.4 20.32) (fields_autoplaced)
    (stroke (width 0.1524) (type solid) (color 0 0 0 0))
    (fill (color 0 0 0 0.0000))
    (uuid a103224f-c6ff-4af3-9315-05448a90a18e)
    (property "Sheet name" "Sensor5" (id 0) (at 110.49 91.9984 0)
      (effects (font (size 1.27 1.27)) (justify left bottom))
    )
    (property "Sheet file" "Sensor.kicad_sch" (id 1) (at 110.49 113.6146 0)
      (effects (font (size 1.27 1.27)) (justify left top))
    )
    (pin "Sensor_Data" output (at 135.89 102.87 0)
      (effects (font (size 1.27 1.27)) (justify right))
      (uuid 80d805fd-9eb0-4ff4-88ce-1dd32016f9dd)
    )
    (pin "GND" output (at 135.89 110.49 0)
      (effects (font (size 1.27 1.27)) (justify right))
      (uuid dc601bfd-1783-43a8-ab45-d5e9827571fc)
    )
    (pin "5V" input (at 135.89 96.52 0)
      (effects (font (size 1.27 1.27)) (justify right))
      (uuid ddd950b5-108a-4051-a8cf-a4cc5db2a5eb)
    )
    (pin "OP-" output (at 135.89 105.41 0)
      (effects (font (size 1.27 1.27)) (justify right))
      (uuid d14f9ddd-3a66-4710-bcdd-f93706df5ea7)
    )
    (pin "OP+" output (at 135.89 107.95 0)
      (effects (font (size 1.27 1.27)) (justify right))
      (uuid 07894c72-3ee2-40dc-87da-b9f9d73a9566)
    )
    (pin "OP_OUT" input (at 135.89 99.06 0)
      (effects (font (size 1.27 1.27)) (justify right))
      (uuid e6f0e7f2-d63a-4d09-885b-da43638451cf)
    )
  )

  (sheet (at 52.07 80.01) (size 25.4 20.32) (fields_autoplaced)
    (stroke (width 0.1524) (type solid) (color 0 0 0 0))
    (fill (color 0 0 0 0.0000))
    (uuid ad79f741-144a-4c6a-a778-25e7686ab3a2)
    (property "Sheet name" "Sensor4" (id 0) (at 52.07 79.2984 0)
      (effects (font (size 1.27 1.27)) (justify left bottom))
    )
    (property "Sheet file" "Sensor.kicad_sch" (id 1) (at 52.07 100.9146 0)
      (effects (font (size 1.27 1.27)) (justify left top))
    )
    (pin "Sensor_Data" output (at 77.47 90.17 0)
      (effects (font (size 1.27 1.27)) (justify right))
      (uuid 58136b0d-0df7-41a8-af75-a19273dc2336)
    )
    (pin "GND" output (at 77.47 97.79 0)
      (effects (font (size 1.27 1.27)) (justify right))
      (uuid 5c197bd2-1300-428b-9ea3-7974c5d1d06e)
    )
    (pin "5V" input (at 77.47 83.82 0)
      (effects (font (size 1.27 1.27)) (justify right))
      (uuid de3341d3-500d-4ab9-8bef-124daacd009a)
    )
    (pin "OP-" output (at 77.47 92.71 0)
      (effects (font (size 1.27 1.27)) (justify right))
      (uuid ff3ecdc1-22ff-4241-b465-d911d1707de0)
    )
    (pin "OP+" output (at 77.47 95.25 0)
      (effects (font (size 1.27 1.27)) (justify right))
      (uuid 1c3719c2-789e-463b-b142-cad3786bc192)
    )
    (pin "OP_OUT" input (at 77.47 86.36 0)
      (effects (font (size 1.27 1.27)) (justify right))
      (uuid 1b70fa96-9776-457a-ab40-a454fdde981a)
    )
  )

  (sheet (at 90.17 31.75) (size 25.4 20.32) (fields_autoplaced)
    (stroke (width 0.1524) (type solid) (color 0 0 0 0))
    (fill (color 0 0 0 0.0000))
    (uuid b136bfdb-0b3c-4825-a81a-feefd0198479)
    (property "Sheet name" "Sensor2" (id 0) (at 90.17 31.0384 0)
      (effects (font (size 1.27 1.27)) (justify left bottom))
    )
    (property "Sheet file" "Sensor.kicad_sch" (id 1) (at 90.17 52.6546 0)
      (effects (font (size 1.27 1.27)) (justify left top))
    )
    (pin "Sensor_Data" output (at 115.57 41.91 0)
      (effects (font (size 1.27 1.27)) (justify right))
      (uuid 3f17b311-d53d-4ca5-b88c-175437753516)
    )
    (pin "GND" output (at 115.57 49.53 0)
      (effects (font (size 1.27 1.27)) (justify right))
      (uuid 663c732a-f995-4af0-92dd-fdfee2928a87)
    )
    (pin "5V" input (at 115.57 35.56 0)
      (effects (font (size 1.27 1.27)) (justify right))
      (uuid 62780c83-bc9d-4930-88d7-e1c4f1fc4f9a)
    )
    (pin "OP-" output (at 115.57 44.45 0)
      (effects (font (size 1.27 1.27)) (justify right))
      (uuid b434e446-d785-48ac-b44f-308a14573ed5)
    )
    (pin "OP+" output (at 115.57 46.99 0)
      (effects (font (size 1.27 1.27)) (justify right))
      (uuid 5baad83a-9208-4536-a0f6-2971370ac843)
    )
    (pin "OP_OUT" input (at 115.57 38.1 0)
      (effects (font (size 1.27 1.27)) (justify right))
      (uuid 73beacd1-28fc-4d5c-b8c5-b79f32f20505)
    )
  )

  (sheet (at 80.01 142.24) (size 25.4 20.32) (fields_autoplaced)
    (stroke (width 0.1524) (type solid) (color 0 0 0 0))
    (fill (color 0 0 0 0.0000))
    (uuid eee9ab2f-1a5d-400b-92d8-658bcfb2b593)
    (property "Sheet name" "Sensor6" (id 0) (at 80.01 141.5284 0)
      (effects (font (size 1.27 1.27)) (justify left bottom))
    )
    (property "Sheet file" "Sensor.kicad_sch" (id 1) (at 80.01 163.1446 0)
      (effects (font (size 1.27 1.27)) (justify left top))
    )
    (pin "Sensor_Data" output (at 105.41 152.4 0)
      (effects (font (size 1.27 1.27)) (justify right))
      (uuid f819f5c5-ed0e-4b85-9143-dbdcb25219b3)
    )
    (pin "GND" output (at 105.41 160.02 0)
      (effects (font (size 1.27 1.27)) (justify right))
      (uuid b35287d7-5487-4846-a7f5-ccfdc59ec23a)
    )
    (pin "5V" input (at 105.41 146.05 0)
      (effects (font (size 1.27 1.27)) (justify right))
      (uuid 9b8783dc-a127-4ccf-a419-eef9a2959716)
    )
    (pin "OP-" output (at 105.41 154.94 0)
      (effects (font (size 1.27 1.27)) (justify right))
      (uuid 0daf43fc-951f-4840-8e57-f03df233c045)
    )
    (pin "OP+" output (at 105.41 157.48 0)
      (effects (font (size 1.27 1.27)) (justify right))
      (uuid 727fe4a0-12c5-4b49-96d0-9020bcf2c573)
    )
    (pin "OP_OUT" input (at 105.41 148.59 0)
      (effects (font (size 1.27 1.27)) (justify right))
      (uuid 8e5a06be-16bd-4778-b333-8efbffb890a6)
    )
  )
)
