(kicad_sch (version 20211123) (generator eeschema)

  (uuid 57272745-c7e3-46fb-a44e-3c3e1b95d1c9)

  (paper "A4")

  (lib_symbols
    (symbol "Device:C" (pin_numbers hide) (pin_names (offset 0.254)) (in_bom yes) (on_board yes)
      (property "Reference" "C" (id 0) (at 0.635 2.54 0)
        (effects (font (size 1.27 1.27)) (justify left))
      )
      (property "Value" "C" (id 1) (at 0.635 -2.54 0)
        (effects (font (size 1.27 1.27)) (justify left))
      )
      (property "Footprint" "" (id 2) (at 0.9652 -3.81 0)
        (effects (font (size 1.27 1.27)) hide)
      )
      (property "Datasheet" "~" (id 3) (at 0 0 0)
        (effects (font (size 1.27 1.27)) hide)
      )
      (property "ki_keywords" "cap capacitor" (id 4) (at 0 0 0)
        (effects (font (size 1.27 1.27)) hide)
      )
      (property "ki_description" "Unpolarized capacitor" (id 5) (at 0 0 0)
        (effects (font (size 1.27 1.27)) hide)
      )
      (property "ki_fp_filters" "C_*" (id 6) (at 0 0 0)
        (effects (font (size 1.27 1.27)) hide)
      )
      (symbol "C_0_1"
        (polyline
          (pts
            (xy -2.032 -0.762)
            (xy 2.032 -0.762)
          )
          (stroke (width 0.508) (type default) (color 0 0 0 0))
          (fill (type none))
        )
        (polyline
          (pts
            (xy -2.032 0.762)
            (xy 2.032 0.762)
          )
          (stroke (width 0.508) (type default) (color 0 0 0 0))
          (fill (type none))
        )
      )
      (symbol "C_1_1"
        (pin passive line (at 0 3.81 270) (length 2.794)
          (name "~" (effects (font (size 1.27 1.27))))
          (number "1" (effects (font (size 1.27 1.27))))
        )
        (pin passive line (at 0 -3.81 90) (length 2.794)
          (name "~" (effects (font (size 1.27 1.27))))
          (number "2" (effects (font (size 1.27 1.27))))
        )
      )
    )
    (symbol "Device:D_Schottky" (pin_numbers hide) (pin_names (offset 1.016) hide) (in_bom yes) (on_board yes)
      (property "Reference" "D" (id 0) (at 0 2.54 0)
        (effects (font (size 1.27 1.27)))
      )
      (property "Value" "D_Schottky" (id 1) (at 0 -2.54 0)
        (effects (font (size 1.27 1.27)))
      )
      (property "Footprint" "" (id 2) (at 0 0 0)
        (effects (font (size 1.27 1.27)) hide)
      )
      (property "Datasheet" "~" (id 3) (at 0 0 0)
        (effects (font (size 1.27 1.27)) hide)
      )
      (property "ki_keywords" "diode Schottky" (id 4) (at 0 0 0)
        (effects (font (size 1.27 1.27)) hide)
      )
      (property "ki_description" "Schottky diode" (id 5) (at 0 0 0)
        (effects (font (size 1.27 1.27)) hide)
      )
      (property "ki_fp_filters" "TO-???* *_Diode_* *SingleDiode* D_*" (id 6) (at 0 0 0)
        (effects (font (size 1.27 1.27)) hide)
      )
      (symbol "D_Schottky_0_1"
        (polyline
          (pts
            (xy 1.27 0)
            (xy -1.27 0)
          )
          (stroke (width 0) (type default) (color 0 0 0 0))
          (fill (type none))
        )
        (polyline
          (pts
            (xy 1.27 1.27)
            (xy 1.27 -1.27)
            (xy -1.27 0)
            (xy 1.27 1.27)
          )
          (stroke (width 0.254) (type default) (color 0 0 0 0))
          (fill (type none))
        )
        (polyline
          (pts
            (xy -1.905 0.635)
            (xy -1.905 1.27)
            (xy -1.27 1.27)
            (xy -1.27 -1.27)
            (xy -0.635 -1.27)
            (xy -0.635 -0.635)
          )
          (stroke (width 0.254) (type default) (color 0 0 0 0))
          (fill (type none))
        )
      )
      (symbol "D_Schottky_1_1"
        (pin passive line (at -3.81 0 0) (length 2.54)
          (name "K" (effects (font (size 1.27 1.27))))
          (number "1" (effects (font (size 1.27 1.27))))
        )
        (pin passive line (at 3.81 0 180) (length 2.54)
          (name "A" (effects (font (size 1.27 1.27))))
          (number "2" (effects (font (size 1.27 1.27))))
        )
      )
    )
    (symbol "Device:L" (pin_numbers hide) (pin_names (offset 1.016) hide) (in_bom yes) (on_board yes)
      (property "Reference" "L" (id 0) (at -1.27 0 90)
        (effects (font (size 1.27 1.27)))
      )
      (property "Value" "L" (id 1) (at 1.905 0 90)
        (effects (font (size 1.27 1.27)))
      )
      (property "Footprint" "" (id 2) (at 0 0 0)
        (effects (font (size 1.27 1.27)) hide)
      )
      (property "Datasheet" "~" (id 3) (at 0 0 0)
        (effects (font (size 1.27 1.27)) hide)
      )
      (property "ki_keywords" "inductor choke coil reactor magnetic" (id 4) (at 0 0 0)
        (effects (font (size 1.27 1.27)) hide)
      )
      (property "ki_description" "Inductor" (id 5) (at 0 0 0)
        (effects (font (size 1.27 1.27)) hide)
      )
      (property "ki_fp_filters" "Choke_* *Coil* Inductor_* L_*" (id 6) (at 0 0 0)
        (effects (font (size 1.27 1.27)) hide)
      )
      (symbol "L_0_1"
        (arc (start 0 -2.54) (mid 0.635 -1.905) (end 0 -1.27)
          (stroke (width 0) (type default) (color 0 0 0 0))
          (fill (type none))
        )
        (arc (start 0 -1.27) (mid 0.635 -0.635) (end 0 0)
          (stroke (width 0) (type default) (color 0 0 0 0))
          (fill (type none))
        )
        (arc (start 0 0) (mid 0.635 0.635) (end 0 1.27)
          (stroke (width 0) (type default) (color 0 0 0 0))
          (fill (type none))
        )
        (arc (start 0 1.27) (mid 0.635 1.905) (end 0 2.54)
          (stroke (width 0) (type default) (color 0 0 0 0))
          (fill (type none))
        )
      )
      (symbol "L_1_1"
        (pin passive line (at 0 3.81 270) (length 1.27)
          (name "1" (effects (font (size 1.27 1.27))))
          (number "1" (effects (font (size 1.27 1.27))))
        )
        (pin passive line (at 0 -3.81 90) (length 1.27)
          (name "2" (effects (font (size 1.27 1.27))))
          (number "2" (effects (font (size 1.27 1.27))))
        )
      )
    )
    (symbol "Device:R" (pin_numbers hide) (pin_names (offset 0)) (in_bom yes) (on_board yes)
      (property "Reference" "R" (id 0) (at 2.032 0 90)
        (effects (font (size 1.27 1.27)))
      )
      (property "Value" "R" (id 1) (at 0 0 90)
        (effects (font (size 1.27 1.27)))
      )
      (property "Footprint" "" (id 2) (at -1.778 0 90)
        (effects (font (size 1.27 1.27)) hide)
      )
      (property "Datasheet" "~" (id 3) (at 0 0 0)
        (effects (font (size 1.27 1.27)) hide)
      )
      (property "ki_keywords" "R res resistor" (id 4) (at 0 0 0)
        (effects (font (size 1.27 1.27)) hide)
      )
      (property "ki_description" "Resistor" (id 5) (at 0 0 0)
        (effects (font (size 1.27 1.27)) hide)
      )
      (property "ki_fp_filters" "R_*" (id 6) (at 0 0 0)
        (effects (font (size 1.27 1.27)) hide)
      )
      (symbol "R_0_1"
        (rectangle (start -1.016 -2.54) (end 1.016 2.54)
          (stroke (width 0.254) (type default) (color 0 0 0 0))
          (fill (type none))
        )
      )
      (symbol "R_1_1"
        (pin passive line (at 0 3.81 270) (length 1.27)
          (name "~" (effects (font (size 1.27 1.27))))
          (number "1" (effects (font (size 1.27 1.27))))
        )
        (pin passive line (at 0 -3.81 90) (length 1.27)
          (name "~" (effects (font (size 1.27 1.27))))
          (number "2" (effects (font (size 1.27 1.27))))
        )
      )
    )
    (symbol "SamacSys_Parts:1058" (pin_names (offset 0.762)) (in_bom yes) (on_board yes)
      (property "Reference" "U" (id 0) (at 16.51 7.62 0)
        (effects (font (size 1.27 1.27)) (justify left))
      )
      (property "Value" "1058" (id 1) (at 16.51 5.08 0)
        (effects (font (size 1.27 1.27)) (justify left))
      )
      (property "Footprint" "1058" (id 2) (at 16.51 2.54 0)
        (effects (font (size 1.27 1.27)) (justify left) hide)
      )
      (property "Datasheet" "https://www.keyelco.com/product-pdf.cfm?p=14028" (id 3) (at 16.51 0 0)
        (effects (font (size 1.27 1.27)) (justify left) hide)
      )
      (property "Description" "Coin Cell Battery Holders 2032 COIN CELL HLDER SMT 1.118\"" (id 4) (at 16.51 -2.54 0)
        (effects (font (size 1.27 1.27)) (justify left) hide)
      )
      (property "Height" "5.08" (id 5) (at 16.51 -5.08 0)
        (effects (font (size 1.27 1.27)) (justify left) hide)
      )
      (property "Mouser Part Number" "534-1058" (id 6) (at 16.51 -7.62 0)
        (effects (font (size 1.27 1.27)) (justify left) hide)
      )
      (property "Mouser Price/Stock" "https://www.mouser.co.uk/ProductDetail/Keystone-Electronics/1058?qs=1Og3oR3ILyCdlFdchHwycQ%3D%3D" (id 7) (at 16.51 -10.16 0)
        (effects (font (size 1.27 1.27)) (justify left) hide)
      )
      (property "Manufacturer_Name" "Keystone Electronics" (id 8) (at 16.51 -12.7 0)
        (effects (font (size 1.27 1.27)) (justify left) hide)
      )
      (property "Manufacturer_Part_Number" "1058" (id 9) (at 16.51 -15.24 0)
        (effects (font (size 1.27 1.27)) (justify left) hide)
      )
      (property "ki_description" "Coin Cell Battery Holders 2032 COIN CELL HLDER SMT 1.118\"" (id 10) (at 0 0 0)
        (effects (font (size 1.27 1.27)) hide)
      )
      (symbol "1058_0_0"
        (pin passive line (at 0 0 0) (length 5.08)
          (name "1" (effects (font (size 1.27 1.27))))
          (number "1" (effects (font (size 1.27 1.27))))
        )
        (pin passive line (at 0 -2.54 0) (length 5.08)
          (name "2" (effects (font (size 1.27 1.27))))
          (number "2" (effects (font (size 1.27 1.27))))
        )
      )
      (symbol "1058_0_1"
        (polyline
          (pts
            (xy 5.08 2.54)
            (xy 15.24 2.54)
            (xy 15.24 -5.08)
            (xy 5.08 -5.08)
            (xy 5.08 2.54)
          )
          (stroke (width 0.1524) (type default) (color 0 0 0 0))
          (fill (type none))
        )
      )
    )
    (symbol "SamacSys_Parts:LTC1682CS8-5#PBF" (pin_names (offset 0.762)) (in_bom yes) (on_board yes)
      (property "Reference" "IC" (id 0) (at 26.67 7.62 0)
        (effects (font (size 1.27 1.27)) (justify left))
      )
      (property "Value" "LTC1682CS8-5#PBF" (id 1) (at 26.67 5.08 0)
        (effects (font (size 1.27 1.27)) (justify left))
      )
      (property "Footprint" "SOIC127P599X175-8N" (id 2) (at 26.67 2.54 0)
        (effects (font (size 1.27 1.27)) (justify left) hide)
      )
      (property "Datasheet" "https://componentsearchengine.com/Datasheets/1/LTC1682CS8-5#PBF.pdf" (id 3) (at 26.67 0 0)
        (effects (font (size 1.27 1.27)) (justify left) hide)
      )
      (property "Description" "Linear Technology LTC1682CS8-5#PBF, Charge Pump Linear, Low Noise 50mA 550 kHz, 5 V, 8-Pin, SOIC" (id 4) (at 26.67 -2.54 0)
        (effects (font (size 1.27 1.27)) (justify left) hide)
      )
      (property "Height" "1.752" (id 5) (at 26.67 -5.08 0)
        (effects (font (size 1.27 1.27)) (justify left) hide)
      )
      (property "Mouser Part Number" "584-LTC1682CS8-5#PBF" (id 6) (at 26.67 -7.62 0)
        (effects (font (size 1.27 1.27)) (justify left) hide)
      )
      (property "Mouser Price/Stock" "https://www.mouser.com/Search/Refine.aspx?Keyword=584-LTC1682CS8-5%23PBF" (id 7) (at 26.67 -10.16 0)
        (effects (font (size 1.27 1.27)) (justify left) hide)
      )
      (property "Manufacturer_Name" "Linear Technology" (id 8) (at 26.67 -12.7 0)
        (effects (font (size 1.27 1.27)) (justify left) hide)
      )
      (property "Manufacturer_Part_Number" "LTC1682CS8-5#PBF" (id 9) (at 26.67 -15.24 0)
        (effects (font (size 1.27 1.27)) (justify left) hide)
      )
      (property "ki_description" "Linear Technology LTC1682CS8-5#PBF, Charge Pump Linear, Low Noise 50mA 550 kHz, 5 V, 8-Pin, SOIC" (id 10) (at 0 0 0)
        (effects (font (size 1.27 1.27)) hide)
      )
      (symbol "LTC1682CS8-5#PBF_0_0"
        (pin passive line (at 0 0 0) (length 5.08)
          (name "VOUT" (effects (font (size 1.27 1.27))))
          (number "1" (effects (font (size 1.27 1.27))))
        )
        (pin passive line (at 0 -2.54 0) (length 5.08)
          (name "~{SHDN}" (effects (font (size 1.27 1.27))))
          (number "2" (effects (font (size 1.27 1.27))))
        )
        (pin passive line (at 0 -5.08 0) (length 5.08)
          (name "FILT/FB" (effects (font (size 1.27 1.27))))
          (number "3" (effects (font (size 1.27 1.27))))
        )
        (pin passive line (at 0 -7.62 0) (length 5.08)
          (name "GND" (effects (font (size 1.27 1.27))))
          (number "4" (effects (font (size 1.27 1.27))))
        )
        (pin passive line (at 30.48 -7.62 180) (length 5.08)
          (name "C-" (effects (font (size 1.27 1.27))))
          (number "5" (effects (font (size 1.27 1.27))))
        )
        (pin passive line (at 30.48 -5.08 180) (length 5.08)
          (name "VIN" (effects (font (size 1.27 1.27))))
          (number "6" (effects (font (size 1.27 1.27))))
        )
        (pin passive line (at 30.48 -2.54 180) (length 5.08)
          (name "C+" (effects (font (size 1.27 1.27))))
          (number "7" (effects (font (size 1.27 1.27))))
        )
        (pin passive line (at 30.48 0 180) (length 5.08)
          (name "CPO" (effects (font (size 1.27 1.27))))
          (number "8" (effects (font (size 1.27 1.27))))
        )
      )
      (symbol "LTC1682CS8-5#PBF_0_1"
        (polyline
          (pts
            (xy 5.08 2.54)
            (xy 25.4 2.54)
            (xy 25.4 -10.16)
            (xy 5.08 -10.16)
            (xy 5.08 2.54)
          )
          (stroke (width 0.1524) (type default) (color 0 0 0 0))
          (fill (type none))
        )
      )
    )
    (symbol "SamacSys_Parts:TPS61006DGS" (pin_names (offset 0.762)) (in_bom yes) (on_board yes)
      (property "Reference" "IC" (id 0) (at 29.21 7.62 0)
        (effects (font (size 1.27 1.27)) (justify left))
      )
      (property "Value" "TPS61006DGS" (id 1) (at 29.21 5.08 0)
        (effects (font (size 1.27 1.27)) (justify left))
      )
      (property "Footprint" "SOP50P490X110-10N" (id 2) (at 29.21 2.54 0)
        (effects (font (size 1.27 1.27)) (justify left) hide)
      )
      (property "Datasheet" "https://www.ti.com/lit/ml/mpds035c/mpds035c.pdf" (id 3) (at 29.21 0 0)
        (effects (font (size 1.27 1.27)) (justify left) hide)
      )
      (property "Description" "Low Input Voltage Boost Converter with Fixed 3.3V Output" (id 4) (at 29.21 -2.54 0)
        (effects (font (size 1.27 1.27)) (justify left) hide)
      )
      (property "Height" "1.1" (id 5) (at 29.21 -5.08 0)
        (effects (font (size 1.27 1.27)) (justify left) hide)
      )
      (property "Mouser Part Number" "595-TPS61006DGS" (id 6) (at 29.21 -7.62 0)
        (effects (font (size 1.27 1.27)) (justify left) hide)
      )
      (property "Mouser Price/Stock" "https://www.mouser.co.uk/ProductDetail/Texas-Instruments/TPS61006DGS?qs=D5pVkbrsqqJs1WYJCoX0DQ%3D%3D" (id 7) (at 29.21 -10.16 0)
        (effects (font (size 1.27 1.27)) (justify left) hide)
      )
      (property "Manufacturer_Name" "Texas Instruments" (id 8) (at 29.21 -12.7 0)
        (effects (font (size 1.27 1.27)) (justify left) hide)
      )
      (property "Manufacturer_Part_Number" "TPS61006DGS" (id 9) (at 29.21 -15.24 0)
        (effects (font (size 1.27 1.27)) (justify left) hide)
      )
      (property "ki_description" "Low Input Voltage Boost Converter with Fixed 3.3V Output" (id 10) (at 0 0 0)
        (effects (font (size 1.27 1.27)) hide)
      )
      (symbol "TPS61006DGS_0_0"
        (pin passive line (at 0 0 0) (length 5.08)
          (name "EN" (effects (font (size 1.27 1.27))))
          (number "1" (effects (font (size 1.27 1.27))))
        )
        (pin passive line (at 33.02 0 180) (length 5.08)
          (name "LBO" (effects (font (size 1.27 1.27))))
          (number "10" (effects (font (size 1.27 1.27))))
        )
        (pin passive line (at 0 -2.54 0) (length 5.08)
          (name "COMP" (effects (font (size 1.27 1.27))))
          (number "2" (effects (font (size 1.27 1.27))))
        )
        (pin passive line (at 0 -5.08 0) (length 5.08)
          (name "FB" (effects (font (size 1.27 1.27))))
          (number "3" (effects (font (size 1.27 1.27))))
        )
        (pin passive line (at 0 -7.62 0) (length 5.08)
          (name "GND" (effects (font (size 1.27 1.27))))
          (number "4" (effects (font (size 1.27 1.27))))
        )
        (pin passive line (at 0 -10.16 0) (length 5.08)
          (name "VOUT" (effects (font (size 1.27 1.27))))
          (number "5" (effects (font (size 1.27 1.27))))
        )
        (pin passive line (at 33.02 -10.16 180) (length 5.08)
          (name "VBAT" (effects (font (size 1.27 1.27))))
          (number "6" (effects (font (size 1.27 1.27))))
        )
        (pin passive line (at 33.02 -7.62 180) (length 5.08)
          (name "SW" (effects (font (size 1.27 1.27))))
          (number "7" (effects (font (size 1.27 1.27))))
        )
        (pin passive line (at 33.02 -5.08 180) (length 5.08)
          (name "NC/FBGND" (effects (font (size 1.27 1.27))))
          (number "8" (effects (font (size 1.27 1.27))))
        )
        (pin passive line (at 33.02 -2.54 180) (length 5.08)
          (name "LBI" (effects (font (size 1.27 1.27))))
          (number "9" (effects (font (size 1.27 1.27))))
        )
      )
      (symbol "TPS61006DGS_0_1"
        (polyline
          (pts
            (xy 5.08 2.54)
            (xy 27.94 2.54)
            (xy 27.94 -12.7)
            (xy 5.08 -12.7)
            (xy 5.08 2.54)
          )
          (stroke (width 0.1524) (type default) (color 0 0 0 0))
          (fill (type none))
        )
      )
    )
    (symbol "power:GND" (power) (pin_names (offset 0)) (in_bom yes) (on_board yes)
      (property "Reference" "#PWR" (id 0) (at 0 -6.35 0)
        (effects (font (size 1.27 1.27)) hide)
      )
      (property "Value" "GND" (id 1) (at 0 -3.81 0)
        (effects (font (size 1.27 1.27)))
      )
      (property "Footprint" "" (id 2) (at 0 0 0)
        (effects (font (size 1.27 1.27)) hide)
      )
      (property "Datasheet" "" (id 3) (at 0 0 0)
        (effects (font (size 1.27 1.27)) hide)
      )
      (property "ki_keywords" "power-flag" (id 4) (at 0 0 0)
        (effects (font (size 1.27 1.27)) hide)
      )
      (property "ki_description" "Power symbol creates a global label with name \"GND\" , ground" (id 5) (at 0 0 0)
        (effects (font (size 1.27 1.27)) hide)
      )
      (symbol "GND_0_1"
        (polyline
          (pts
            (xy 0 0)
            (xy 0 -1.27)
            (xy 1.27 -1.27)
            (xy 0 -2.54)
            (xy -1.27 -1.27)
            (xy 0 -1.27)
          )
          (stroke (width 0) (type default) (color 0 0 0 0))
          (fill (type none))
        )
      )
      (symbol "GND_1_1"
        (pin power_in line (at 0 0 270) (length 0) hide
          (name "GND" (effects (font (size 1.27 1.27))))
          (number "1" (effects (font (size 1.27 1.27))))
        )
      )
    )
  )

  (junction (at 226.06 43.18) (diameter 0) (color 0 0 0 0)
    (uuid 2178e5aa-8f1e-4eb9-9085-c4fc539a3969)
  )
  (junction (at 125.73 81.28) (diameter 0) (color 0 0 0 0)
    (uuid 217e05f4-e9df-49ec-a913-c087c7600208)
  )
  (junction (at 166.37 27.94) (diameter 0) (color 0 0 0 0)
    (uuid 3508cfd1-7e1f-4ebe-af4e-d8e04973a4ae)
  )
  (junction (at 182.88 88.9) (diameter 0) (color 0 0 0 0)
    (uuid 38fe8491-e516-44d8-b9ef-54f425a8793b)
  )
  (junction (at 233.68 43.18) (diameter 0) (color 0 0 0 0)
    (uuid 45bbf144-c808-4dee-b456-33ed481ea160)
  )
  (junction (at 226.06 22.86) (diameter 0) (color 0 0 0 0)
    (uuid 4a2a133b-dbcb-42fb-a6bb-3f1ac7aba600)
  )
  (junction (at 186.69 72.39) (diameter 0) (color 0 0 0 0)
    (uuid 4ee90177-b6b7-47d9-bc1c-4443b8c8f7d4)
  )
  (junction (at 186.69 27.94) (diameter 0) (color 0 0 0 0)
    (uuid 51c6eb43-9209-4d13-a8a4-7226089ced20)
  )
  (junction (at 125.73 88.9) (diameter 0) (color 0 0 0 0)
    (uuid 562b1c43-6c62-4391-9651-c487f231ed19)
  )
  (junction (at 125.73 69.85) (diameter 0) (color 0 0 0 0)
    (uuid 5ec06509-4d24-48f1-807c-48e86e0acbe4)
  )
  (junction (at 143.51 69.85) (diameter 0) (color 0 0 0 0)
    (uuid 6b427efa-8651-4d1f-8da2-fa04c7336ad7)
  )
  (junction (at 40.64 22.86) (diameter 0) (color 0 0 0 0)
    (uuid 712120ee-963a-4843-988c-04a964e93fcc)
  )
  (junction (at 191.77 83.82) (diameter 0) (color 0 0 0 0)
    (uuid 7c6b1306-f919-422e-80a2-960c701cbfc6)
  )
  (junction (at 92.71 22.86) (diameter 0) (color 0 0 0 0)
    (uuid 863666f6-cf73-4255-bcad-83626898b2df)
  )
  (junction (at 233.68 22.86) (diameter 0) (color 0 0 0 0)
    (uuid a4b2822e-5107-410a-8740-5f432402359d)
  )
  (junction (at 69.85 53.34) (diameter 0) (color 0 0 0 0)
    (uuid b5ab35c7-61f0-49bf-92aa-477373c5af96)
  )
  (junction (at 226.06 33.02) (diameter 0) (color 0 0 0 0)
    (uuid b6caae52-e3fe-4377-99a6-c12cf4e73a36)
  )
  (junction (at 69.85 22.86) (diameter 0) (color 0 0 0 0)
    (uuid c08cacd2-b494-45a3-a05a-bbadc604a099)
  )
  (junction (at 142.24 91.44) (diameter 0) (color 0 0 0 0)
    (uuid c2269223-7c8a-4ace-a384-9864c1c2974b)
  )
  (junction (at 139.7 88.9) (diameter 0) (color 0 0 0 0)
    (uuid c4a31ffd-3b10-4a17-b691-29f8500896a1)
  )
  (junction (at 191.77 69.85) (diameter 0) (color 0 0 0 0)
    (uuid c9364e6a-d4f1-44fc-9ca2-09681d96cd40)
  )
  (junction (at 40.64 53.34) (diameter 0) (color 0 0 0 0)
    (uuid dc9d3d40-93b8-44e0-b0a6-3efbe3400d1b)
  )
  (junction (at 186.69 69.85) (diameter 0) (color 0 0 0 0)
    (uuid e684fb32-0b44-455f-ac63-a6126c035601)
  )

  (no_connect (at 179.07 86.36) (uuid 10e20c2c-facc-4389-9003-62fb5697a5a7))
  (no_connect (at 146.05 86.36) (uuid 916498db-204b-45a1-a248-781b8d2b7225))

  (wire (pts (xy 186.69 27.94) (xy 190.5 27.94))
    (stroke (width 0) (type default) (color 0 0 0 0))
    (uuid 01513bb9-1503-409d-8fd7-3c0b19474e91)
  )
  (wire (pts (xy 69.85 44.45) (xy 69.85 53.34))
    (stroke (width 0) (type default) (color 0 0 0 0))
    (uuid 04933ec6-3da6-4628-8fe7-4aa1db6bbbe6)
  )
  (wire (pts (xy 40.64 22.86) (xy 40.64 41.91))
    (stroke (width 0) (type default) (color 0 0 0 0))
    (uuid 0ee3a88c-c6ff-4d02-a2f2-70c5504c0819)
  )
  (wire (pts (xy 179.07 83.82) (xy 191.77 83.82))
    (stroke (width 0) (type default) (color 0 0 0 0))
    (uuid 102813dc-4702-4d51-9bf9-eb91b8d2cd8a)
  )
  (wire (pts (xy 226.06 30.48) (xy 226.06 33.02))
    (stroke (width 0) (type default) (color 0 0 0 0))
    (uuid 118c3b37-2c20-4b9d-8a30-ed866b9d6a05)
  )
  (wire (pts (xy 198.12 88.9) (xy 193.04 88.9))
    (stroke (width 0) (type default) (color 0 0 0 0))
    (uuid 139a058f-1562-4150-a03b-ff0761f0b089)
  )
  (wire (pts (xy 125.73 81.28) (xy 125.73 88.9))
    (stroke (width 0) (type default) (color 0 0 0 0))
    (uuid 1cb26154-0b7f-421a-ac0a-7ccd990a5727)
  )
  (wire (pts (xy 186.69 81.28) (xy 186.69 72.39))
    (stroke (width 0) (type default) (color 0 0 0 0))
    (uuid 1ef0c8ff-880b-4f5d-8cf9-e11bef4b0f1b)
  )
  (wire (pts (xy 173.99 41.91) (xy 173.99 38.1))
    (stroke (width 0) (type default) (color 0 0 0 0))
    (uuid 2242e8d0-544f-4595-954e-8c7ae59ac5fc)
  )
  (wire (pts (xy 172.72 72.39) (xy 142.24 72.39))
    (stroke (width 0) (type default) (color 0 0 0 0))
    (uuid 234f598f-cc36-4dd4-a940-a7a6d5a57561)
  )
  (wire (pts (xy 226.06 22.86) (xy 220.98 22.86))
    (stroke (width 0) (type default) (color 0 0 0 0))
    (uuid 255ad7c7-27aa-4aec-895e-c2e19d9c5089)
  )
  (wire (pts (xy 43.18 41.91) (xy 40.64 41.91))
    (stroke (width 0) (type default) (color 0 0 0 0))
    (uuid 28359d43-8bb1-4b16-b104-78699f730dfe)
  )
  (wire (pts (xy 173.99 25.4) (xy 190.5 25.4))
    (stroke (width 0) (type default) (color 0 0 0 0))
    (uuid 29dd311f-4197-4969-85a7-c274bfaffca7)
  )
  (wire (pts (xy 113.03 123.19) (xy 113.03 69.85))
    (stroke (width 0) (type default) (color 0 0 0 0))
    (uuid 2a2231ce-2d7e-482f-a316-1497d7e23f8a)
  )
  (wire (pts (xy 92.71 22.86) (xy 69.85 22.86))
    (stroke (width 0) (type default) (color 0 0 0 0))
    (uuid 2a6cce20-cb02-49b3-afd6-2aeb87e18a9a)
  )
  (wire (pts (xy 40.64 53.34) (xy 40.64 67.31))
    (stroke (width 0) (type default) (color 0 0 0 0))
    (uuid 328c5dee-d45c-4067-9f76-272bb18996ba)
  )
  (wire (pts (xy 166.37 30.48) (xy 166.37 27.94))
    (stroke (width 0) (type default) (color 0 0 0 0))
    (uuid 355179d2-471f-45ac-bbcb-aff3491443d8)
  )
  (wire (pts (xy 142.24 72.39) (xy 142.24 91.44))
    (stroke (width 0) (type default) (color 0 0 0 0))
    (uuid 39b0f1f9-212e-4b14-8a66-0c08f406b23c)
  )
  (wire (pts (xy 220.98 25.4) (xy 223.52 25.4))
    (stroke (width 0) (type default) (color 0 0 0 0))
    (uuid 45ffda98-db7d-472e-882a-413063986f18)
  )
  (wire (pts (xy 125.73 69.85) (xy 133.35 69.85))
    (stroke (width 0) (type default) (color 0 0 0 0))
    (uuid 49ffdb4f-5dcb-4110-9ba1-5ae857149940)
  )
  (wire (pts (xy 92.71 22.86) (xy 125.73 22.86))
    (stroke (width 0) (type default) (color 0 0 0 0))
    (uuid 50509212-a87e-4b42-baf4-275ce18a6b38)
  )
  (wire (pts (xy 191.77 72.39) (xy 191.77 69.85))
    (stroke (width 0) (type default) (color 0 0 0 0))
    (uuid 5097f237-615b-42e1-8dad-5cb7afa4e2b6)
  )
  (wire (pts (xy 186.69 69.85) (xy 191.77 69.85))
    (stroke (width 0) (type default) (color 0 0 0 0))
    (uuid 50c5631a-e92b-4e99-b9ab-38857c9a9380)
  )
  (wire (pts (xy 138.43 88.9) (xy 139.7 88.9))
    (stroke (width 0) (type default) (color 0 0 0 0))
    (uuid 53b3327d-2cb1-4057-8d63-119b16c0ad28)
  )
  (wire (pts (xy 143.51 69.85) (xy 143.51 83.82))
    (stroke (width 0) (type default) (color 0 0 0 0))
    (uuid 54455c48-5722-4699-8548-dc85230227f6)
  )
  (wire (pts (xy 142.24 100.33) (xy 142.24 91.44))
    (stroke (width 0) (type default) (color 0 0 0 0))
    (uuid 551258e6-142b-45af-b1a3-17dd326677ec)
  )
  (wire (pts (xy 139.7 101.6) (xy 139.7 105.41))
    (stroke (width 0) (type default) (color 0 0 0 0))
    (uuid 5c1b4e21-6c66-4da9-bda1-4684842bf2b6)
  )
  (wire (pts (xy 17.78 44.45) (xy 17.78 53.34))
    (stroke (width 0) (type default) (color 0 0 0 0))
    (uuid 5dc73bc8-735b-465f-8cab-da1e9b4ea918)
  )
  (wire (pts (xy 143.51 69.85) (xy 147.32 69.85))
    (stroke (width 0) (type default) (color 0 0 0 0))
    (uuid 60463cff-1527-4d4e-964f-d4e46456bb8e)
  )
  (wire (pts (xy 220.98 27.94) (xy 223.52 27.94))
    (stroke (width 0) (type default) (color 0 0 0 0))
    (uuid 678fe893-527c-485b-92a7-c741c2246483)
  )
  (wire (pts (xy 179.07 91.44) (xy 179.07 123.19))
    (stroke (width 0) (type default) (color 0 0 0 0))
    (uuid 6908ffb7-5bae-4364-833e-6e8710676d5f)
  )
  (wire (pts (xy 173.99 30.48) (xy 173.99 25.4))
    (stroke (width 0) (type default) (color 0 0 0 0))
    (uuid 6ac8c545-6943-4840-8da3-298e12616e0e)
  )
  (wire (pts (xy 69.85 41.91) (xy 69.85 22.86))
    (stroke (width 0) (type default) (color 0 0 0 0))
    (uuid 6e5c0760-8d19-47f1-8096-d5835170ca7f)
  )
  (wire (pts (xy 69.85 22.86) (xy 40.64 22.86))
    (stroke (width 0) (type default) (color 0 0 0 0))
    (uuid 75ae2783-3198-4f8d-9057-5e2819e15a3b)
  )
  (wire (pts (xy 92.71 44.45) (xy 92.71 53.34))
    (stroke (width 0) (type default) (color 0 0 0 0))
    (uuid 776f852b-e4fd-4185-927f-a7926a4d87a5)
  )
  (wire (pts (xy 223.52 27.94) (xy 223.52 33.02))
    (stroke (width 0) (type default) (color 0 0 0 0))
    (uuid 7afed0ad-c179-4419-ab59-319186b429da)
  )
  (wire (pts (xy 17.78 22.86) (xy 40.64 22.86))
    (stroke (width 0) (type default) (color 0 0 0 0))
    (uuid 7cb78e00-b56b-4512-a305-82284d7b49e4)
  )
  (wire (pts (xy 125.73 69.85) (xy 125.73 81.28))
    (stroke (width 0) (type default) (color 0 0 0 0))
    (uuid 7ea18917-11aa-4d8e-a4ef-407745dfc4f2)
  )
  (wire (pts (xy 220.98 43.18) (xy 226.06 43.18))
    (stroke (width 0) (type default) (color 0 0 0 0))
    (uuid 7f68910e-9f43-43d7-b347-e2bb89c70cb9)
  )
  (wire (pts (xy 223.52 33.02) (xy 226.06 33.02))
    (stroke (width 0) (type default) (color 0 0 0 0))
    (uuid 80b4e662-ebdc-4cda-889e-b3c621dc6620)
  )
  (wire (pts (xy 190.5 22.86) (xy 166.37 22.86))
    (stroke (width 0) (type default) (color 0 0 0 0))
    (uuid 84b6dc05-3a96-4f86-a27f-d3e5910f2286)
  )
  (wire (pts (xy 179.07 81.28) (xy 186.69 81.28))
    (stroke (width 0) (type default) (color 0 0 0 0))
    (uuid 88f5466a-0bf5-4f48-a3b1-7258dba9cfc4)
  )
  (wire (pts (xy 223.52 13.97) (xy 186.69 13.97))
    (stroke (width 0) (type default) (color 0 0 0 0))
    (uuid 894e71fb-1c11-43a4-8144-adbcd854f7c4)
  )
  (wire (pts (xy 238.76 22.86) (xy 233.68 22.86))
    (stroke (width 0) (type default) (color 0 0 0 0))
    (uuid 89a8743e-ee73-4c60-94ae-401c038614e5)
  )
  (wire (pts (xy 198.12 102.87) (xy 198.12 106.68))
    (stroke (width 0) (type default) (color 0 0 0 0))
    (uuid 9512c1ea-74a2-4333-9c92-a25a3d563bfa)
  )
  (wire (pts (xy 125.73 100.33) (xy 125.73 105.41))
    (stroke (width 0) (type default) (color 0 0 0 0))
    (uuid 9c1a41e4-09b2-41db-8e4e-0a6eae2b6286)
  )
  (wire (pts (xy 220.98 30.48) (xy 220.98 43.18))
    (stroke (width 0) (type default) (color 0 0 0 0))
    (uuid a1f481c5-ff2d-48dd-b002-f3fa4ffcf2d4)
  )
  (wire (pts (xy 201.93 83.82) (xy 201.93 85.09))
    (stroke (width 0) (type default) (color 0 0 0 0))
    (uuid a2f1cceb-a617-4f17-94c1-b51bb86e3013)
  )
  (wire (pts (xy 233.68 43.18) (xy 233.68 45.72))
    (stroke (width 0) (type default) (color 0 0 0 0))
    (uuid a35b31e4-efd9-407d-ab28-930cc9823cd9)
  )
  (wire (pts (xy 226.06 33.02) (xy 226.06 34.29))
    (stroke (width 0) (type default) (color 0 0 0 0))
    (uuid a3a191a3-3165-42bd-8172-453936fbf584)
  )
  (wire (pts (xy 186.69 13.97) (xy 186.69 27.94))
    (stroke (width 0) (type default) (color 0 0 0 0))
    (uuid a3f8305c-bd2a-4940-90ca-28a9aa6cb0b2)
  )
  (wire (pts (xy 191.77 80.01) (xy 191.77 83.82))
    (stroke (width 0) (type default) (color 0 0 0 0))
    (uuid a435335c-1831-41ca-9af7-3b6d1155fc46)
  )
  (wire (pts (xy 125.73 22.86) (xy 125.73 69.85))
    (stroke (width 0) (type default) (color 0 0 0 0))
    (uuid a53fcb3b-016b-485d-9f97-3f6ac1c234e9)
  )
  (wire (pts (xy 179.07 123.19) (xy 113.03 123.19))
    (stroke (width 0) (type default) (color 0 0 0 0))
    (uuid ab86a23a-42a2-4161-8c4c-0338604c8bcc)
  )
  (wire (pts (xy 69.85 53.34) (xy 40.64 53.34))
    (stroke (width 0) (type default) (color 0 0 0 0))
    (uuid ab8e0669-f843-4f9c-b94e-87eec88b70f8)
  )
  (wire (pts (xy 179.07 88.9) (xy 182.88 88.9))
    (stroke (width 0) (type default) (color 0 0 0 0))
    (uuid acd887d9-8baf-4cff-8400-9521a2682a58)
  )
  (wire (pts (xy 190.5 41.91) (xy 190.5 30.48))
    (stroke (width 0) (type default) (color 0 0 0 0))
    (uuid ad7b4100-2c5c-412a-8ed6-347dfa3b903a)
  )
  (wire (pts (xy 160.02 100.33) (xy 142.24 100.33))
    (stroke (width 0) (type default) (color 0 0 0 0))
    (uuid aeaf6a09-f2f5-49ed-9d4f-8c69856c7f51)
  )
  (wire (pts (xy 233.68 22.86) (xy 226.06 22.86))
    (stroke (width 0) (type default) (color 0 0 0 0))
    (uuid b1d94b0b-cb47-4e05-9275-ab4fa99d8fde)
  )
  (wire (pts (xy 226.06 43.18) (xy 233.68 43.18))
    (stroke (width 0) (type default) (color 0 0 0 0))
    (uuid b65f5572-b4a8-4318-89de-f8be658084b6)
  )
  (wire (pts (xy 191.77 83.82) (xy 201.93 83.82))
    (stroke (width 0) (type default) (color 0 0 0 0))
    (uuid bc17cd3f-9ab0-480e-b670-e547a25186f7)
  )
  (wire (pts (xy 142.24 91.44) (xy 146.05 91.44))
    (stroke (width 0) (type default) (color 0 0 0 0))
    (uuid c0c5e835-abbd-458b-ae92-033eb43533cf)
  )
  (wire (pts (xy 17.78 53.34) (xy 40.64 53.34))
    (stroke (width 0) (type default) (color 0 0 0 0))
    (uuid c74dcba6-3413-4664-9c75-37047c1faebe)
  )
  (wire (pts (xy 130.81 88.9) (xy 125.73 88.9))
    (stroke (width 0) (type default) (color 0 0 0 0))
    (uuid c83b2473-5ccd-4c0c-a1f8-ba5d438f38c8)
  )
  (wire (pts (xy 198.12 95.25) (xy 198.12 88.9))
    (stroke (width 0) (type default) (color 0 0 0 0))
    (uuid c9875a73-f84d-45d9-8b4a-ee88e0d0738c)
  )
  (wire (pts (xy 143.51 69.85) (xy 140.97 69.85))
    (stroke (width 0) (type default) (color 0 0 0 0))
    (uuid ca436e43-917a-4ab1-a1c7-41854d3b4b9b)
  )
  (wire (pts (xy 139.7 88.9) (xy 139.7 93.98))
    (stroke (width 0) (type default) (color 0 0 0 0))
    (uuid ccd0ec5f-f5f1-4678-b374-7aacec7f8d19)
  )
  (wire (pts (xy 125.73 88.9) (xy 125.73 92.71))
    (stroke (width 0) (type default) (color 0 0 0 0))
    (uuid d0f2e01c-c188-4c76-8e91-dbce8bd07b3b)
  )
  (wire (pts (xy 166.37 22.86) (xy 166.37 27.94))
    (stroke (width 0) (type default) (color 0 0 0 0))
    (uuid d191b7b3-88b3-4e84-951a-3a9a8cc7c654)
  )
  (wire (pts (xy 146.05 81.28) (xy 125.73 81.28))
    (stroke (width 0) (type default) (color 0 0 0 0))
    (uuid d1cb6ed7-afcb-4623-b27d-11e4488b4e2b)
  )
  (wire (pts (xy 226.06 41.91) (xy 226.06 43.18))
    (stroke (width 0) (type default) (color 0 0 0 0))
    (uuid d4dcf0bf-19c9-4000-b355-4cc072218485)
  )
  (wire (pts (xy 191.77 69.85) (xy 208.28 69.85))
    (stroke (width 0) (type default) (color 0 0 0 0))
    (uuid d7c9ebb9-4ac3-4e4e-904d-62e56a234ea4)
  )
  (wire (pts (xy 166.37 38.1) (xy 166.37 41.91))
    (stroke (width 0) (type default) (color 0 0 0 0))
    (uuid d8313b7d-a5b9-4617-850b-81ee1b0a249a)
  )
  (wire (pts (xy 17.78 41.91) (xy 17.78 22.86))
    (stroke (width 0) (type default) (color 0 0 0 0))
    (uuid dbc702b9-c22b-456b-8c86-3e938f4d3d7b)
  )
  (wire (pts (xy 154.94 69.85) (xy 186.69 69.85))
    (stroke (width 0) (type default) (color 0 0 0 0))
    (uuid dc9ea07f-b709-422e-a695-f1fad540ee0b)
  )
  (wire (pts (xy 233.68 30.48) (xy 233.68 43.18))
    (stroke (width 0) (type default) (color 0 0 0 0))
    (uuid e1912903-cdaf-45c8-8a89-a4ef93654ca8)
  )
  (wire (pts (xy 186.69 27.94) (xy 186.69 69.85))
    (stroke (width 0) (type default) (color 0 0 0 0))
    (uuid e4f9545c-ae9d-4c8a-898e-5b99d783fa18)
  )
  (wire (pts (xy 182.88 88.9) (xy 185.42 88.9))
    (stroke (width 0) (type default) (color 0 0 0 0))
    (uuid e57c614d-d8ff-4953-a701-136ccb7b2d59)
  )
  (wire (pts (xy 92.71 53.34) (xy 69.85 53.34))
    (stroke (width 0) (type default) (color 0 0 0 0))
    (uuid e5d8f428-c45a-4699-b3ce-23897d89a398)
  )
  (wire (pts (xy 182.88 102.87) (xy 182.88 106.68))
    (stroke (width 0) (type default) (color 0 0 0 0))
    (uuid ebc418d8-0904-400d-a182-cc087660392d)
  )
  (wire (pts (xy 223.52 25.4) (xy 223.52 13.97))
    (stroke (width 0) (type default) (color 0 0 0 0))
    (uuid ebfca142-597f-4788-a3a4-3237e92a9561)
  )
  (wire (pts (xy 139.7 88.9) (xy 146.05 88.9))
    (stroke (width 0) (type default) (color 0 0 0 0))
    (uuid ee0c1ae2-6d1c-4500-a8ef-db21788bca0a)
  )
  (wire (pts (xy 146.05 83.82) (xy 143.51 83.82))
    (stroke (width 0) (type default) (color 0 0 0 0))
    (uuid eec27627-51db-47a7-bf40-caaabbb45b47)
  )
  (wire (pts (xy 186.69 72.39) (xy 186.69 69.85))
    (stroke (width 0) (type default) (color 0 0 0 0))
    (uuid f178435e-775e-4eb1-9a5f-0453809666b8)
  )
  (wire (pts (xy 166.37 27.94) (xy 186.69 27.94))
    (stroke (width 0) (type default) (color 0 0 0 0))
    (uuid f33a97ee-4102-4829-a21d-47c455ff7371)
  )
  (wire (pts (xy 92.71 41.91) (xy 92.71 22.86))
    (stroke (width 0) (type default) (color 0 0 0 0))
    (uuid f3569ccc-a382-48d0-b45c-f64ee06c0c83)
  )
  (wire (pts (xy 113.03 69.85) (xy 125.73 69.85))
    (stroke (width 0) (type default) (color 0 0 0 0))
    (uuid f420b1e9-d533-4452-84ca-01a7d21588f0)
  )
  (wire (pts (xy 180.34 72.39) (xy 186.69 72.39))
    (stroke (width 0) (type default) (color 0 0 0 0))
    (uuid f6ca16ee-6b05-45a4-9ab2-a3be938cae99)
  )
  (wire (pts (xy 182.88 88.9) (xy 182.88 95.25))
    (stroke (width 0) (type default) (color 0 0 0 0))
    (uuid f7653a6b-f0a3-4369-a145-faa1568578fd)
  )
  (wire (pts (xy 40.64 44.45) (xy 40.64 53.34))
    (stroke (width 0) (type default) (color 0 0 0 0))
    (uuid fab7dde9-4bba-4259-a058-5fba36f9255b)
  )
  (wire (pts (xy 43.18 44.45) (xy 40.64 44.45))
    (stroke (width 0) (type default) (color 0 0 0 0))
    (uuid fd02aa19-4724-449f-832b-756835a56c87)
  )
  (wire (pts (xy 173.99 41.91) (xy 190.5 41.91))
    (stroke (width 0) (type default) (color 0 0 0 0))
    (uuid fe31003d-d65a-4d89-bc11-5894f66fea9d)
  )

  (label "3V" (at 69.85 22.86 0)
    (effects (font (size 1.27 1.27)) (justify left bottom))
    (uuid 7bb0c970-dc4e-45fc-a7aa-6aa7ff98f6ad)
  )

  (hierarchical_label "5V" (shape output) (at 238.76 22.86 0)
    (effects (font (size 1.27 1.27)) (justify left))
    (uuid 93692e0a-30d2-4aa0-afa6-d3b6e14a4fd3)
  )
  (hierarchical_label "3.3V" (shape output) (at 208.28 69.85 0)
    (effects (font (size 1.27 1.27)) (justify left))
    (uuid 9a67c2b7-bed3-4457-9e16-db9e48558052)
  )
  (hierarchical_label "Low_Batt" (shape output) (at 160.02 100.33 0)
    (effects (font (size 1.27 1.27)) (justify left))
    (uuid e6b3eb09-21e2-4d1a-9c63-9b05e9dc9f9d)
  )

  (symbol (lib_id "power:GND") (at 139.7 105.41 0) (unit 1)
    (in_bom yes) (on_board yes) (fields_autoplaced)
    (uuid 034304de-7505-48a6-8f9b-d5dd6d4f5165)
    (property "Reference" "#PWR0125" (id 0) (at 139.7 111.76 0)
      (effects (font (size 1.27 1.27)) hide)
    )
    (property "Value" "GND" (id 1) (at 139.7 110.49 0))
    (property "Footprint" "" (id 2) (at 139.7 105.41 0)
      (effects (font (size 1.27 1.27)) hide)
    )
    (property "Datasheet" "" (id 3) (at 139.7 105.41 0)
      (effects (font (size 1.27 1.27)) hide)
    )
    (pin "1" (uuid cb6a9997-56f8-42b2-9623-e748f0f549f4))
  )

  (symbol (lib_id "Device:C") (at 166.37 34.29 0) (unit 1)
    (in_bom yes) (on_board yes)
    (uuid 0422febe-c9be-4014-9593-5d262b973719)
    (property "Reference" "C17" (id 0) (at 167.64 31.75 0)
      (effects (font (size 1.27 1.27)) (justify left))
    )
    (property "Value" "4.7u" (id 1) (at 166.37 36.83 0)
      (effects (font (size 1.27 1.27)) (justify left))
    )
    (property "Footprint" "Capacitor_SMD:C_0805_2012Metric" (id 2) (at 167.3352 38.1 0)
      (effects (font (size 1.27 1.27)) hide)
    )
    (property "Datasheet" "~" (id 3) (at 166.37 34.29 0)
      (effects (font (size 1.27 1.27)) hide)
    )
    (pin "1" (uuid 6e041ef9-0e42-4db1-ac6d-26987c089e44))
    (pin "2" (uuid 924e47a2-e175-434f-a6a7-ea65ebfdcf5d))
  )

  (symbol (lib_id "power:GND") (at 233.68 45.72 0) (unit 1)
    (in_bom yes) (on_board yes) (fields_autoplaced)
    (uuid 04ec2682-4e97-4f64-baa5-272da68e401d)
    (property "Reference" "#PWR0132" (id 0) (at 233.68 52.07 0)
      (effects (font (size 1.27 1.27)) hide)
    )
    (property "Value" "GND" (id 1) (at 233.68 50.8 0))
    (property "Footprint" "" (id 2) (at 233.68 45.72 0)
      (effects (font (size 1.27 1.27)) hide)
    )
    (property "Datasheet" "" (id 3) (at 233.68 45.72 0)
      (effects (font (size 1.27 1.27)) hide)
    )
    (pin "1" (uuid 089e76a4-1332-4093-9c00-6db5c113a6dc))
  )

  (symbol (lib_id "power:GND") (at 201.93 85.09 0) (unit 1)
    (in_bom yes) (on_board yes) (fields_autoplaced)
    (uuid 071abd53-f76b-4347-af0f-8246dda23caa)
    (property "Reference" "#PWR0131" (id 0) (at 201.93 91.44 0)
      (effects (font (size 1.27 1.27)) hide)
    )
    (property "Value" "GND" (id 1) (at 201.93 90.17 0))
    (property "Footprint" "" (id 2) (at 201.93 85.09 0)
      (effects (font (size 1.27 1.27)) hide)
    )
    (property "Datasheet" "" (id 3) (at 201.93 85.09 0)
      (effects (font (size 1.27 1.27)) hide)
    )
    (pin "1" (uuid 4513efbc-b361-46c0-88ad-db3538b89481))
  )

  (symbol (lib_id "Device:R") (at 226.06 38.1 0) (unit 1)
    (in_bom yes) (on_board yes)
    (uuid 19be318d-5ece-4f97-849f-4fbd9aa10915)
    (property "Reference" "R32" (id 0) (at 227.33 36.83 0)
      (effects (font (size 1.27 1.27)) (justify left))
    )
    (property "Value" "18k" (id 1) (at 227.33 39.37 0)
      (effects (font (size 1.27 1.27)) (justify left))
    )
    (property "Footprint" "Resistor_SMD:R_0805_2012Metric" (id 2) (at 224.282 38.1 90)
      (effects (font (size 1.27 1.27)) hide)
    )
    (property "Datasheet" "~" (id 3) (at 226.06 38.1 0)
      (effects (font (size 1.27 1.27)) hide)
    )
    (pin "1" (uuid 6e31617c-c47a-42ed-bff8-f83c0c09c8a4))
    (pin "2" (uuid 865a9a84-8d1b-4c58-8456-d3c3c64e36b4))
  )

  (symbol (lib_id "Device:C") (at 233.68 26.67 0) (unit 1)
    (in_bom yes) (on_board yes)
    (uuid 1aa2d2de-530e-4589-b442-1c77230f564c)
    (property "Reference" "C22" (id 0) (at 234.95 24.13 0)
      (effects (font (size 1.27 1.27)) (justify left))
    )
    (property "Value" "4.7u" (id 1) (at 233.68 29.21 0)
      (effects (font (size 1.27 1.27)) (justify left))
    )
    (property "Footprint" "Capacitor_SMD:C_0805_2012Metric" (id 2) (at 234.6452 30.48 0)
      (effects (font (size 1.27 1.27)) hide)
    )
    (property "Datasheet" "~" (id 3) (at 233.68 26.67 0)
      (effects (font (size 1.27 1.27)) hide)
    )
    (pin "1" (uuid 64a7491f-d558-41cd-a6a2-e948dd98335e))
    (pin "2" (uuid 65189afc-1e97-418d-af11-bc4ed0e19067))
  )

  (symbol (lib_id "Device:C") (at 173.99 34.29 0) (unit 1)
    (in_bom yes) (on_board yes)
    (uuid 2c0a724e-2ccf-4243-aa99-2f357782c805)
    (property "Reference" "C18" (id 0) (at 175.26 31.75 0)
      (effects (font (size 1.27 1.27)) (justify left))
    )
    (property "Value" "0.22u" (id 1) (at 173.99 36.83 0)
      (effects (font (size 1.27 1.27)) (justify left))
    )
    (property "Footprint" "Capacitor_SMD:C_0805_2012Metric" (id 2) (at 174.9552 38.1 0)
      (effects (font (size 1.27 1.27)) hide)
    )
    (property "Datasheet" "~" (id 3) (at 173.99 34.29 0)
      (effects (font (size 1.27 1.27)) hide)
    )
    (pin "1" (uuid 4dcaaa24-d94d-418e-a7be-54c4a2c9af2c))
    (pin "2" (uuid 0b8c9ebe-b135-4f5a-9df9-c19263a18829))
  )

  (symbol (lib_id "SamacSys_Parts:1058") (at 69.85 41.91 0) (unit 1)
    (in_bom yes) (on_board yes) (fields_autoplaced)
    (uuid 4360c56e-5498-4d86-b8ca-b50dfea78619)
    (property "Reference" "U10" (id 0) (at 86.36 41.9099 0)
      (effects (font (size 1.27 1.27)) (justify left))
    )
    (property "Value" "1058" (id 1) (at 86.36 44.4499 0)
      (effects (font (size 1.27 1.27)) (justify left))
    )
    (property "Footprint" "Battery:BatteryHolder_Keystone_1058_1x2032" (id 2) (at 86.36 39.37 0)
      (effects (font (size 1.27 1.27)) (justify left) hide)
    )
    (property "Datasheet" "https://www.keyelco.com/product-pdf.cfm?p=14028" (id 3) (at 86.36 41.91 0)
      (effects (font (size 1.27 1.27)) (justify left) hide)
    )
    (property "Description" "Coin Cell Battery Holders 2032 COIN CELL HLDER SMT 1.118\"" (id 4) (at 86.36 44.45 0)
      (effects (font (size 1.27 1.27)) (justify left) hide)
    )
    (property "Height" "5.08" (id 5) (at 86.36 46.99 0)
      (effects (font (size 1.27 1.27)) (justify left) hide)
    )
    (property "Mouser Part Number" "534-1058" (id 6) (at 86.36 49.53 0)
      (effects (font (size 1.27 1.27)) (justify left) hide)
    )
    (property "Mouser Price/Stock" "https://www.mouser.co.uk/ProductDetail/Keystone-Electronics/1058?qs=1Og3oR3ILyCdlFdchHwycQ%3D%3D" (id 7) (at 86.36 52.07 0)
      (effects (font (size 1.27 1.27)) (justify left) hide)
    )
    (property "Manufacturer_Name" "Keystone Electronics" (id 8) (at 86.36 54.61 0)
      (effects (font (size 1.27 1.27)) (justify left) hide)
    )
    (property "Manufacturer_Part_Number" "1058" (id 9) (at 86.36 57.15 0)
      (effects (font (size 1.27 1.27)) (justify left) hide)
    )
    (pin "1" (uuid 87f910dc-7a65-411e-ab82-ed8dd25758bd))
    (pin "2" (uuid 9bc97c83-e672-4907-81fc-1f95c24ed765))
  )

  (symbol (lib_id "power:GND") (at 40.64 67.31 0) (unit 1)
    (in_bom yes) (on_board yes) (fields_autoplaced)
    (uuid 441361fc-59ba-40dc-8f15-9102f23f01bb)
    (property "Reference" "#PWR0124" (id 0) (at 40.64 73.66 0)
      (effects (font (size 1.27 1.27)) hide)
    )
    (property "Value" "GND" (id 1) (at 40.64 72.39 0))
    (property "Footprint" "" (id 2) (at 40.64 67.31 0)
      (effects (font (size 1.27 1.27)) hide)
    )
    (property "Datasheet" "" (id 3) (at 40.64 67.31 0)
      (effects (font (size 1.27 1.27)) hide)
    )
    (pin "1" (uuid a36a89ef-7e1c-4ffd-a922-dfae626801c6))
  )

  (symbol (lib_id "Device:C") (at 191.77 76.2 0) (unit 1)
    (in_bom yes) (on_board yes) (fields_autoplaced)
    (uuid 483a714b-d476-4b2c-b959-de2c86d11c66)
    (property "Reference" "C20" (id 0) (at 195.58 74.9299 0)
      (effects (font (size 1.27 1.27)) (justify left))
    )
    (property "Value" "10u" (id 1) (at 195.58 77.4699 0)
      (effects (font (size 1.27 1.27)) (justify left))
    )
    (property "Footprint" "Capacitor_SMD:C_0805_2012Metric" (id 2) (at 192.7352 80.01 0)
      (effects (font (size 1.27 1.27)) hide)
    )
    (property "Datasheet" "~" (id 3) (at 191.77 76.2 0)
      (effects (font (size 1.27 1.27)) hide)
    )
    (pin "1" (uuid d462c6d3-938f-4999-8382-31085916eb5e))
    (pin "2" (uuid 768a56ec-d140-4f7e-b897-63982e84a88a))
  )

  (symbol (lib_id "SamacSys_Parts:TPS61006DGS") (at 179.07 91.44 180) (unit 1)
    (in_bom yes) (on_board yes) (fields_autoplaced)
    (uuid 488e0ca6-88e2-4bbd-bfeb-f8d2d9e72326)
    (property "Reference" "IC2" (id 0) (at 162.56 73.66 0))
    (property "Value" "TPS61006DGS" (id 1) (at 162.56 76.2 0))
    (property "Footprint" "SamacSys_Parts:SOP50P490X110-10N" (id 2) (at 149.86 93.98 0)
      (effects (font (size 1.27 1.27)) (justify left) hide)
    )
    (property "Datasheet" "https://www.ti.com/lit/ml/mpds035c/mpds035c.pdf" (id 3) (at 149.86 91.44 0)
      (effects (font (size 1.27 1.27)) (justify left) hide)
    )
    (property "Description" "Low Input Voltage Boost Converter with Fixed 3.3V Output" (id 4) (at 149.86 88.9 0)
      (effects (font (size 1.27 1.27)) (justify left) hide)
    )
    (property "Height" "1.1" (id 5) (at 149.86 86.36 0)
      (effects (font (size 1.27 1.27)) (justify left) hide)
    )
    (property "Mouser Part Number" "595-TPS61006DGS" (id 6) (at 149.86 83.82 0)
      (effects (font (size 1.27 1.27)) (justify left) hide)
    )
    (property "Mouser Price/Stock" "https://www.mouser.co.uk/ProductDetail/Texas-Instruments/TPS61006DGS?qs=D5pVkbrsqqJs1WYJCoX0DQ%3D%3D" (id 7) (at 149.86 81.28 0)
      (effects (font (size 1.27 1.27)) (justify left) hide)
    )
    (property "Manufacturer_Name" "Texas Instruments" (id 8) (at 149.86 78.74 0)
      (effects (font (size 1.27 1.27)) (justify left) hide)
    )
    (property "Manufacturer_Part_Number" "TPS61006DGS" (id 9) (at 149.86 76.2 0)
      (effects (font (size 1.27 1.27)) (justify left) hide)
    )
    (pin "1" (uuid e6501f1e-fe43-4230-96ef-ac23687f902b))
    (pin "10" (uuid 1af35573-476a-4a21-963a-ce33097e0ece))
    (pin "2" (uuid ba5f189e-23ad-4955-94f6-d609f707b622))
    (pin "3" (uuid d7b98d98-3216-4db3-ab96-dd1daae88883))
    (pin "4" (uuid c9e2b170-0702-4f67-83f4-d6f6d55b9822))
    (pin "5" (uuid d4282d65-456d-4a95-9129-c5cf48ff6d71))
    (pin "6" (uuid b23c5401-1a81-4203-9b04-dd496eea854a))
    (pin "7" (uuid 2dfbfc63-bdfa-4d63-a210-78000ee50578))
    (pin "8" (uuid d35f890d-fe09-462f-a700-3002d97a4c36))
    (pin "9" (uuid e5613725-2ece-4833-a299-4afc63ffac90))
  )

  (symbol (lib_id "power:GND") (at 198.12 106.68 0) (unit 1)
    (in_bom yes) (on_board yes) (fields_autoplaced)
    (uuid 576d38e4-4463-43a8-8c5b-4ad75befd98f)
    (property "Reference" "#PWR0128" (id 0) (at 198.12 113.03 0)
      (effects (font (size 1.27 1.27)) hide)
    )
    (property "Value" "GND" (id 1) (at 198.12 111.76 0))
    (property "Footprint" "" (id 2) (at 198.12 106.68 0)
      (effects (font (size 1.27 1.27)) hide)
    )
    (property "Datasheet" "" (id 3) (at 198.12 106.68 0)
      (effects (font (size 1.27 1.27)) hide)
    )
    (pin "1" (uuid 1c99d790-1f5c-4e46-8389-f383addcb8d3))
  )

  (symbol (lib_id "Device:R") (at 134.62 88.9 270) (unit 1)
    (in_bom yes) (on_board yes)
    (uuid 670d3d0d-6b05-4109-ad7f-746cb5d38be6)
    (property "Reference" "R4" (id 0) (at 134.62 93.98 90))
    (property "Value" "R" (id 1) (at 134.62 91.44 90))
    (property "Footprint" "Resistor_SMD:R_0805_2012Metric" (id 2) (at 134.62 87.122 90)
      (effects (font (size 1.27 1.27)) hide)
    )
    (property "Datasheet" "~" (id 3) (at 134.62 88.9 0)
      (effects (font (size 1.27 1.27)) hide)
    )
    (pin "1" (uuid ee7437ac-851c-4f40-931f-2f5973f415e2))
    (pin "2" (uuid 0cba16b5-bbfe-452a-9f48-f5579c1fdf53))
  )

  (symbol (lib_id "Device:C") (at 182.88 99.06 0) (unit 1)
    (in_bom yes) (on_board yes) (fields_autoplaced)
    (uuid 98dbbac4-1573-45a9-b77c-47109d6b15fe)
    (property "Reference" "C19" (id 0) (at 186.69 97.7899 0)
      (effects (font (size 1.27 1.27)) (justify left))
    )
    (property "Value" "100p" (id 1) (at 186.69 100.3299 0)
      (effects (font (size 1.27 1.27)) (justify left))
    )
    (property "Footprint" "Capacitor_SMD:C_0805_2012Metric" (id 2) (at 183.8452 102.87 0)
      (effects (font (size 1.27 1.27)) hide)
    )
    (property "Datasheet" "~" (id 3) (at 182.88 99.06 0)
      (effects (font (size 1.27 1.27)) hide)
    )
    (pin "1" (uuid b722be7a-e87a-4a0c-91d3-91db4093f737))
    (pin "2" (uuid 9eb91768-3d48-440f-a957-8cae7a278e67))
  )

  (symbol (lib_id "SamacSys_Parts:1058") (at 17.78 41.91 0) (unit 1)
    (in_bom yes) (on_board yes) (fields_autoplaced)
    (uuid 98dc3fe2-6e08-47d0-8cdd-74ee2570c682)
    (property "Reference" "U8" (id 0) (at 34.29 41.9099 0)
      (effects (font (size 1.27 1.27)) (justify left))
    )
    (property "Value" "1058" (id 1) (at 34.29 44.4499 0)
      (effects (font (size 1.27 1.27)) (justify left))
    )
    (property "Footprint" "Battery:BatteryHolder_Keystone_1058_1x2032" (id 2) (at 34.29 39.37 0)
      (effects (font (size 1.27 1.27)) (justify left) hide)
    )
    (property "Datasheet" "https://www.keyelco.com/product-pdf.cfm?p=14028" (id 3) (at 34.29 41.91 0)
      (effects (font (size 1.27 1.27)) (justify left) hide)
    )
    (property "Description" "Coin Cell Battery Holders 2032 COIN CELL HLDER SMT 1.118\"" (id 4) (at 34.29 44.45 0)
      (effects (font (size 1.27 1.27)) (justify left) hide)
    )
    (property "Height" "5.08" (id 5) (at 34.29 46.99 0)
      (effects (font (size 1.27 1.27)) (justify left) hide)
    )
    (property "Mouser Part Number" "534-1058" (id 6) (at 34.29 49.53 0)
      (effects (font (size 1.27 1.27)) (justify left) hide)
    )
    (property "Mouser Price/Stock" "https://www.mouser.co.uk/ProductDetail/Keystone-Electronics/1058?qs=1Og3oR3ILyCdlFdchHwycQ%3D%3D" (id 7) (at 34.29 52.07 0)
      (effects (font (size 1.27 1.27)) (justify left) hide)
    )
    (property "Manufacturer_Name" "Keystone Electronics" (id 8) (at 34.29 54.61 0)
      (effects (font (size 1.27 1.27)) (justify left) hide)
    )
    (property "Manufacturer_Part_Number" "1058" (id 9) (at 34.29 57.15 0)
      (effects (font (size 1.27 1.27)) (justify left) hide)
    )
    (pin "1" (uuid c02f0c67-be29-4695-acb9-81afacbcd384))
    (pin "2" (uuid 31c187d4-87ad-4d60-bd8f-98cf0ce183f8))
  )

  (symbol (lib_id "SamacSys_Parts:LTC1682CS8-5#PBF") (at 220.98 22.86 0) (mirror y) (unit 1)
    (in_bom yes) (on_board yes) (fields_autoplaced)
    (uuid 9acd51e8-857c-4187-8a99-d0fa719e18df)
    (property "Reference" "IC3" (id 0) (at 205.74 15.24 0))
    (property "Value" "LTC1682CS8-5#PBF" (id 1) (at 205.74 17.78 0))
    (property "Footprint" "SamacSys_Parts:SOIC127P599X175-8N" (id 2) (at 194.31 20.32 0)
      (effects (font (size 1.27 1.27)) (justify left) hide)
    )
    (property "Datasheet" "https://componentsearchengine.com/Datasheets/1/LTC1682CS8-5#PBF.pdf" (id 3) (at 194.31 22.86 0)
      (effects (font (size 1.27 1.27)) (justify left) hide)
    )
    (property "Description" "Linear Technology LTC1682CS8-5#PBF, Charge Pump Linear, Low Noise 50mA 550 kHz, 5 V, 8-Pin, SOIC" (id 4) (at 194.31 25.4 0)
      (effects (font (size 1.27 1.27)) (justify left) hide)
    )
    (property "Height" "1.752" (id 5) (at 194.31 27.94 0)
      (effects (font (size 1.27 1.27)) (justify left) hide)
    )
    (property "Mouser Part Number" "584-LTC1682CS8-5#PBF" (id 6) (at 194.31 30.48 0)
      (effects (font (size 1.27 1.27)) (justify left) hide)
    )
    (property "Mouser Price/Stock" "https://www.mouser.com/Search/Refine.aspx?Keyword=584-LTC1682CS8-5%23PBF" (id 7) (at 194.31 33.02 0)
      (effects (font (size 1.27 1.27)) (justify left) hide)
    )
    (property "Manufacturer_Name" "Linear Technology" (id 8) (at 194.31 35.56 0)
      (effects (font (size 1.27 1.27)) (justify left) hide)
    )
    (property "Manufacturer_Part_Number" "LTC1682CS8-5#PBF" (id 9) (at 194.31 38.1 0)
      (effects (font (size 1.27 1.27)) (justify left) hide)
    )
    (pin "1" (uuid 9a083f8d-1808-43a5-8352-1b32dfd341e2))
    (pin "2" (uuid c37f5186-5879-4e1b-b823-85b83b79e7b9))
    (pin "3" (uuid 0070ee2d-8e9f-475c-b8ed-4e028ddc9305))
    (pin "4" (uuid 003e22ef-cd24-4760-9e7e-e8cdbcefb83d))
    (pin "5" (uuid bbf44e56-6bba-4f3c-8c3c-a69dbb3628db))
    (pin "6" (uuid 2d3f06db-b67c-4b5c-b6de-96183f8c1f0f))
    (pin "7" (uuid 33665dbe-c0f9-47e7-a50f-8f0ac907d7da))
    (pin "8" (uuid 4c31c835-5adc-4615-9ebe-956fcc8b9716))
  )

  (symbol (lib_id "Device:R") (at 176.53 72.39 90) (unit 1)
    (in_bom yes) (on_board yes)
    (uuid a772c2b1-cddb-46f8-9b4c-daff8a8f6d33)
    (property "Reference" "R33" (id 0) (at 176.53 77.47 90))
    (property "Value" "R" (id 1) (at 176.53 74.93 90))
    (property "Footprint" "Resistor_SMD:R_0805_2012Metric" (id 2) (at 176.53 74.168 90)
      (effects (font (size 1.27 1.27)) hide)
    )
    (property "Datasheet" "~" (id 3) (at 176.53 72.39 0)
      (effects (font (size 1.27 1.27)) hide)
    )
    (pin "1" (uuid 020ce06e-c27b-4ad3-ac8b-e61e27a36cf0))
    (pin "2" (uuid c8898701-1d74-45cd-a9c4-e869d24ca7fd))
  )

  (symbol (lib_id "Device:C") (at 125.73 96.52 0) (unit 1)
    (in_bom yes) (on_board yes) (fields_autoplaced)
    (uuid a8346e5f-9a5e-4a97-a6dc-6a9fc0eb684c)
    (property "Reference" "C16" (id 0) (at 129.54 95.2499 0)
      (effects (font (size 1.27 1.27)) (justify left))
    )
    (property "Value" "10u" (id 1) (at 129.54 97.7899 0)
      (effects (font (size 1.27 1.27)) (justify left))
    )
    (property "Footprint" "Capacitor_SMD:C_0805_2012Metric" (id 2) (at 126.6952 100.33 0)
      (effects (font (size 1.27 1.27)) hide)
    )
    (property "Datasheet" "~" (id 3) (at 125.73 96.52 0)
      (effects (font (size 1.27 1.27)) hide)
    )
    (pin "1" (uuid 3c891c76-aff2-42b7-8e98-600ee1eb9b8e))
    (pin "2" (uuid 95d123f3-a3b4-4bb6-95f7-9a4aace012a2))
  )

  (symbol (lib_id "Device:R") (at 139.7 97.79 0) (unit 1)
    (in_bom yes) (on_board yes)
    (uuid a9ac3b9e-4962-474a-85aa-ef9b66b44105)
    (property "Reference" "R29" (id 0) (at 134.62 99.06 0)
      (effects (font (size 1.27 1.27)) (justify left))
    )
    (property "Value" "R" (id 1) (at 135.89 101.6 0)
      (effects (font (size 1.27 1.27)) (justify left))
    )
    (property "Footprint" "Resistor_SMD:R_0805_2012Metric" (id 2) (at 137.922 97.79 90)
      (effects (font (size 1.27 1.27)) hide)
    )
    (property "Datasheet" "~" (id 3) (at 139.7 97.79 0)
      (effects (font (size 1.27 1.27)) hide)
    )
    (pin "1" (uuid 06fd4ce1-016d-4b4e-ae5c-66bf39b091e1))
    (pin "2" (uuid 950999ac-a706-4ac1-83d1-d7f170b8e6ea))
  )

  (symbol (lib_id "Device:R") (at 189.23 88.9 270) (unit 1)
    (in_bom yes) (on_board yes)
    (uuid d5031c7d-b18f-4e0f-844e-f32cd8cc9982)
    (property "Reference" "R30" (id 0) (at 189.23 91.44 90))
    (property "Value" "10k" (id 1) (at 189.23 86.36 90))
    (property "Footprint" "Resistor_SMD:R_0805_2012Metric" (id 2) (at 189.23 87.122 90)
      (effects (font (size 1.27 1.27)) hide)
    )
    (property "Datasheet" "~" (id 3) (at 189.23 88.9 0)
      (effects (font (size 1.27 1.27)) hide)
    )
    (pin "1" (uuid e6c18f3a-ecb4-4db2-8270-97cceeccde88))
    (pin "2" (uuid 6096e3f4-5648-4ab3-8d14-5a9489b128cb))
  )

  (symbol (lib_id "power:GND") (at 182.88 106.68 0) (unit 1)
    (in_bom yes) (on_board yes) (fields_autoplaced)
    (uuid d69429cf-95c1-407a-a610-877c9c178d87)
    (property "Reference" "#PWR0130" (id 0) (at 182.88 113.03 0)
      (effects (font (size 1.27 1.27)) hide)
    )
    (property "Value" "GND" (id 1) (at 182.88 111.76 0))
    (property "Footprint" "" (id 2) (at 182.88 106.68 0)
      (effects (font (size 1.27 1.27)) hide)
    )
    (property "Datasheet" "" (id 3) (at 182.88 106.68 0)
      (effects (font (size 1.27 1.27)) hide)
    )
    (pin "1" (uuid 1a2cac54-4d9f-4f7e-b824-4c02aa18e095))
  )

  (symbol (lib_id "Device:D_Schottky") (at 151.13 69.85 180) (unit 1)
    (in_bom yes) (on_board yes) (fields_autoplaced)
    (uuid d77bb8d5-1472-45ef-8f71-1f0a54d7a610)
    (property "Reference" "D1" (id 0) (at 151.4475 63.5 0))
    (property "Value" "MBRM120LT3" (id 1) (at 151.4475 66.04 0))
    (property "Footprint" "Diode_SMD:D_Powermite_AK" (id 2) (at 151.13 69.85 0)
      (effects (font (size 1.27 1.27)) hide)
    )
    (property "Datasheet" "~" (id 3) (at 151.13 69.85 0)
      (effects (font (size 1.27 1.27)) hide)
    )
    (pin "1" (uuid 95116cf9-1457-4bdc-b83e-d385403261f5))
    (pin "2" (uuid 76af1029-6ca9-442f-b0ba-2f139e029867))
  )

  (symbol (lib_id "SamacSys_Parts:1058") (at 43.18 41.91 0) (unit 1)
    (in_bom yes) (on_board yes) (fields_autoplaced)
    (uuid e0f03b95-0eb4-4fed-9b1a-3564bb334a58)
    (property "Reference" "U9" (id 0) (at 59.69 41.9099 0)
      (effects (font (size 1.27 1.27)) (justify left))
    )
    (property "Value" "1058" (id 1) (at 59.69 44.4499 0)
      (effects (font (size 1.27 1.27)) (justify left))
    )
    (property "Footprint" "Battery:BatteryHolder_Keystone_1058_1x2032" (id 2) (at 59.69 39.37 0)
      (effects (font (size 1.27 1.27)) (justify left) hide)
    )
    (property "Datasheet" "https://www.keyelco.com/product-pdf.cfm?p=14028" (id 3) (at 59.69 41.91 0)
      (effects (font (size 1.27 1.27)) (justify left) hide)
    )
    (property "Description" "Coin Cell Battery Holders 2032 COIN CELL HLDER SMT 1.118\"" (id 4) (at 59.69 44.45 0)
      (effects (font (size 1.27 1.27)) (justify left) hide)
    )
    (property "Height" "5.08" (id 5) (at 59.69 46.99 0)
      (effects (font (size 1.27 1.27)) (justify left) hide)
    )
    (property "Mouser Part Number" "534-1058" (id 6) (at 59.69 49.53 0)
      (effects (font (size 1.27 1.27)) (justify left) hide)
    )
    (property "Mouser Price/Stock" "https://www.mouser.co.uk/ProductDetail/Keystone-Electronics/1058?qs=1Og3oR3ILyCdlFdchHwycQ%3D%3D" (id 7) (at 59.69 52.07 0)
      (effects (font (size 1.27 1.27)) (justify left) hide)
    )
    (property "Manufacturer_Name" "Keystone Electronics" (id 8) (at 59.69 54.61 0)
      (effects (font (size 1.27 1.27)) (justify left) hide)
    )
    (property "Manufacturer_Part_Number" "1058" (id 9) (at 59.69 57.15 0)
      (effects (font (size 1.27 1.27)) (justify left) hide)
    )
    (pin "1" (uuid d79532c7-c634-482e-bc5b-76b7f79f9d3b))
    (pin "2" (uuid a383ae1e-3ba1-4761-8163-d95206e1b33b))
  )

  (symbol (lib_id "power:GND") (at 166.37 41.91 0) (unit 1)
    (in_bom yes) (on_board yes) (fields_autoplaced)
    (uuid e9570cac-1cf8-4075-9a7b-e98586366c0d)
    (property "Reference" "#PWR0133" (id 0) (at 166.37 48.26 0)
      (effects (font (size 1.27 1.27)) hide)
    )
    (property "Value" "GND" (id 1) (at 166.37 46.99 0))
    (property "Footprint" "" (id 2) (at 166.37 41.91 0)
      (effects (font (size 1.27 1.27)) hide)
    )
    (property "Datasheet" "" (id 3) (at 166.37 41.91 0)
      (effects (font (size 1.27 1.27)) hide)
    )
    (pin "1" (uuid cb6e12bc-5250-4f33-91c2-ebc4a54f5a0f))
  )

  (symbol (lib_id "Device:C") (at 198.12 99.06 0) (unit 1)
    (in_bom yes) (on_board yes) (fields_autoplaced)
    (uuid ea7effeb-7852-46c9-885f-de6af0d7ef01)
    (property "Reference" "C21" (id 0) (at 201.93 97.7899 0)
      (effects (font (size 1.27 1.27)) (justify left))
    )
    (property "Value" "33n" (id 1) (at 201.93 100.3299 0)
      (effects (font (size 1.27 1.27)) (justify left))
    )
    (property "Footprint" "Capacitor_SMD:C_0805_2012Metric" (id 2) (at 199.0852 102.87 0)
      (effects (font (size 1.27 1.27)) hide)
    )
    (property "Datasheet" "~" (id 3) (at 198.12 99.06 0)
      (effects (font (size 1.27 1.27)) hide)
    )
    (pin "1" (uuid dba721d9-24cc-46ed-8a83-ddd8efc5e974))
    (pin "2" (uuid a4cea650-689c-45d1-871c-79889680e0b4))
  )

  (symbol (lib_id "power:GND") (at 125.73 105.41 0) (unit 1)
    (in_bom yes) (on_board yes) (fields_autoplaced)
    (uuid eb0dd0be-2bb5-460a-a0a7-4a4a280ed137)
    (property "Reference" "#PWR0129" (id 0) (at 125.73 111.76 0)
      (effects (font (size 1.27 1.27)) hide)
    )
    (property "Value" "GND" (id 1) (at 125.73 110.49 0))
    (property "Footprint" "" (id 2) (at 125.73 105.41 0)
      (effects (font (size 1.27 1.27)) hide)
    )
    (property "Datasheet" "" (id 3) (at 125.73 105.41 0)
      (effects (font (size 1.27 1.27)) hide)
    )
    (pin "1" (uuid 3bc763ec-9092-428f-958a-ee2ccce14d70))
  )

  (symbol (lib_id "SamacSys_Parts:1058") (at 92.71 41.91 0) (unit 1)
    (in_bom yes) (on_board yes) (fields_autoplaced)
    (uuid f3ed5095-7de8-425f-9dfe-23e6de350809)
    (property "Reference" "U11" (id 0) (at 109.22 41.9099 0)
      (effects (font (size 1.27 1.27)) (justify left))
    )
    (property "Value" "1058" (id 1) (at 109.22 44.4499 0)
      (effects (font (size 1.27 1.27)) (justify left))
    )
    (property "Footprint" "Battery:BatteryHolder_Keystone_1058_1x2032" (id 2) (at 109.22 39.37 0)
      (effects (font (size 1.27 1.27)) (justify left) hide)
    )
    (property "Datasheet" "https://www.keyelco.com/product-pdf.cfm?p=14028" (id 3) (at 109.22 41.91 0)
      (effects (font (size 1.27 1.27)) (justify left) hide)
    )
    (property "Description" "Coin Cell Battery Holders 2032 COIN CELL HLDER SMT 1.118\"" (id 4) (at 109.22 44.45 0)
      (effects (font (size 1.27 1.27)) (justify left) hide)
    )
    (property "Height" "5.08" (id 5) (at 109.22 46.99 0)
      (effects (font (size 1.27 1.27)) (justify left) hide)
    )
    (property "Mouser Part Number" "534-1058" (id 6) (at 109.22 49.53 0)
      (effects (font (size 1.27 1.27)) (justify left) hide)
    )
    (property "Mouser Price/Stock" "https://www.mouser.co.uk/ProductDetail/Keystone-Electronics/1058?qs=1Og3oR3ILyCdlFdchHwycQ%3D%3D" (id 7) (at 109.22 52.07 0)
      (effects (font (size 1.27 1.27)) (justify left) hide)
    )
    (property "Manufacturer_Name" "Keystone Electronics" (id 8) (at 109.22 54.61 0)
      (effects (font (size 1.27 1.27)) (justify left) hide)
    )
    (property "Manufacturer_Part_Number" "1058" (id 9) (at 109.22 57.15 0)
      (effects (font (size 1.27 1.27)) (justify left) hide)
    )
    (pin "1" (uuid ea2ea0b0-fbac-45b3-8349-aaf7811f685c))
    (pin "2" (uuid f2f22d55-1271-439f-bc12-159b49f921cb))
  )

  (symbol (lib_id "Device:R") (at 226.06 26.67 0) (unit 1)
    (in_bom yes) (on_board yes)
    (uuid f6f8327f-f316-424c-8867-38d362471f2f)
    (property "Reference" "R31" (id 0) (at 227.33 25.4 0)
      (effects (font (size 1.27 1.27)) (justify left))
    )
    (property "Value" "56k" (id 1) (at 227.33 27.94 0)
      (effects (font (size 1.27 1.27)) (justify left))
    )
    (property "Footprint" "Resistor_SMD:R_0805_2012Metric" (id 2) (at 224.282 26.67 90)
      (effects (font (size 1.27 1.27)) hide)
    )
    (property "Datasheet" "~" (id 3) (at 226.06 26.67 0)
      (effects (font (size 1.27 1.27)) hide)
    )
    (pin "1" (uuid 0f4badfe-7294-4394-8e10-9d99b9a7af7d))
    (pin "2" (uuid cd6796f8-c512-4f4c-930e-954ff75b5337))
  )

  (symbol (lib_id "Device:L") (at 137.16 69.85 90) (unit 1)
    (in_bom yes) (on_board yes)
    (uuid fd39bae0-d13e-41f9-862e-5c3a4019f315)
    (property "Reference" "L2" (id 0) (at 137.16 71.12 90))
    (property "Value" "33u" (id 1) (at 137.16 73.66 90))
    (property "Footprint" "Inductor_SMD:L_12x12mm_H4.5mm" (id 2) (at 137.16 69.85 0)
      (effects (font (size 1.27 1.27)) hide)
    )
    (property "Datasheet" "~" (id 3) (at 137.16 69.85 0)
      (effects (font (size 1.27 1.27)) hide)
    )
    (pin "1" (uuid 4eb7eeaf-c3ab-4f64-9e4b-2d56faee5d68))
    (pin "2" (uuid 32379fcb-8e6f-4d0f-b366-10baa667718d))
  )
)
