Version 4
SHEET 1 880 680
WIRE -16 -128 -96 -128
WIRE -96 -64 -96 -128
WIRE 384 -64 384 -112
WIRE -96 48 -96 16
WIRE -16 48 -16 -128
WIRE 32 48 -16 48
WIRE 256 48 208 48
WIRE 384 48 384 16
WIRE 32 64 32 48
WIRE 256 64 256 48
WIRE 208 176 208 48
WIRE 32 192 32 144
WIRE 176 192 32 192
WIRE 32 208 32 192
WIRE 288 208 240 208
WIRE 416 208 288 208
WIRE 176 224 128 224
WIRE 208 256 208 240
WIRE 128 288 128 224
WIRE 288 288 128 288
WIRE -16 384 -16 48
WIRE 128 384 -16 384
WIRE 288 384 288 368
WIRE 288 384 128 384
FLAG 32 288 0
FLAG 384 48 0
FLAG 384 -112 Vcc
FLAG 416 208 Vout
FLAG -96 48 0
FLAG 128 464 0
FLAG 208 256 Vcc
FLAG 256 64 0
SYMBOL res 16 48 R0
SYMATTR InstName FSR
SYMATTR Value {R}
SYMBOL res 16 192 R0
SYMATTR InstName RM
SYMATTR Value 8.2k
SYMBOL res 272 192 R0
SYMATTR InstName R2
SYMATTR Value 3k
SYMBOL res 272 272 R0
SYMATTR InstName R1
SYMATTR Value 4020
SYMBOL voltage 384 -80 R0
WINDOW 123 0 0 Left 0
WINDOW 39 0 0 Left 0
SYMATTR InstName V2
SYMATTR Value {V}
SYMBOL OpAmps\\LT1014 208 272 M180
SYMATTR InstName U1
SYMBOL voltage -96 -80 R0
WINDOW 123 0 0 Left 0
WINDOW 39 0 0 Left 0
SYMATTR InstName V+
SYMATTR Value {V}
SYMBOL res 112 368 R0
SYMATTR InstName R3
SYMATTR Value 1k
TEXT -16 576 Left 2 !.step param R 1 30k 1k
TEXT -16 600 Left 2 !.op
TEXT -16 552 Left 2 !.step param V 3.0 4.2 0.1
