%TF.GenerationSoftware,KiCad,Pcbnew,(6.0.1)*%
%TF.CreationDate,2022-03-29T14:50:23-05:00*%
%TF.ProjectId,IntelliSOLE_rev2,496e7465-6c6c-4695-934f-4c455f726576,rev?*%
%TF.SameCoordinates,Original*%
%TF.FileFunction,Paste,Top*%
%TF.FilePolarity,Positive*%
%FSLAX46Y46*%
G04 Gerber Fmt 4.6, Leading zero omitted, Abs format (unit mm)*
G04 Created by KiCad (PCBNEW (6.0.1)) date 2022-03-29 14:50:23*
%MOMM*%
%LPD*%
G01*
G04 APERTURE LIST*
G04 Aperture macros list*
%AMRoundRect*
0 Rectangle with rounded corners*
0 $1 Rounding radius*
0 $2 $3 $4 $5 $6 $7 $8 $9 X,Y pos of 4 corners*
0 Add a 4 corners polygon primitive as box body*
4,1,4,$2,$3,$4,$5,$6,$7,$8,$9,$2,$3,0*
0 Add four circle primitives for the rounded corners*
1,1,$1+$1,$2,$3*
1,1,$1+$1,$4,$5*
1,1,$1+$1,$6,$7*
1,1,$1+$1,$8,$9*
0 Add four rect primitives between the rounded corners*
20,1,$1+$1,$2,$3,$4,$5,0*
20,1,$1+$1,$4,$5,$6,$7,0*
20,1,$1+$1,$6,$7,$8,$9,0*
20,1,$1+$1,$8,$9,$2,$3,0*%
G04 Aperture macros list end*
%ADD10RoundRect,0.250000X0.262500X0.450000X-0.262500X0.450000X-0.262500X-0.450000X0.262500X-0.450000X0*%
%ADD11R,0.700000X1.200000*%
%ADD12R,1.000000X1.200000*%
%ADD13R,1.000000X0.800000*%
%ADD14R,1.000000X2.800000*%
%ADD15R,1.300000X1.900000*%
%ADD16RoundRect,0.250000X0.450000X-0.262500X0.450000X0.262500X-0.450000X0.262500X-0.450000X-0.262500X0*%
%ADD17RoundRect,0.250000X-0.250000X-0.475000X0.250000X-0.475000X0.250000X0.475000X-0.250000X0.475000X0*%
%ADD18RoundRect,0.250000X-0.262500X-0.450000X0.262500X-0.450000X0.262500X0.450000X-0.262500X0.450000X0*%
%ADD19R,1.200000X0.700000*%
%ADD20RoundRect,0.250000X0.475000X-0.250000X0.475000X0.250000X-0.475000X0.250000X-0.475000X-0.250000X0*%
%ADD21RoundRect,0.250000X-0.450000X0.262500X-0.450000X-0.262500X0.450000X-0.262500X0.450000X0.262500X0*%
%ADD22RoundRect,0.250000X-0.475000X0.250000X-0.475000X-0.250000X0.475000X-0.250000X0.475000X0.250000X0*%
%ADD23R,0.450000X1.475000*%
%ADD24RoundRect,0.250000X0.250000X0.475000X-0.250000X0.475000X-0.250000X-0.475000X0.250000X-0.475000X0*%
%ADD25R,2.000000X0.900000*%
%ADD26R,0.900000X2.000000*%
%ADD27R,5.000000X5.000000*%
G04 APERTURE END LIST*
D10*
%TO.C,R21*%
X69858500Y-43292000D03*
X68033500Y-43292000D03*
%TD*%
D11*
%TO.C,J1*%
X18815000Y-30018000D03*
X19915000Y-30018000D03*
X21015000Y-30018000D03*
X22115000Y-30018000D03*
X23215000Y-30018000D03*
X24315000Y-30018000D03*
X25415000Y-30018000D03*
X26515000Y-30018000D03*
D12*
X17265000Y-30018000D03*
D11*
X27465000Y-30018000D03*
D12*
X28415000Y-25718000D03*
D13*
X28415000Y-19519000D03*
D14*
X28415000Y-15369000D03*
D15*
X14915000Y-14918000D03*
%TD*%
D16*
%TO.C,R14*%
X82042000Y-50950500D03*
X82042000Y-49125500D03*
%TD*%
D17*
%TO.C,C3*%
X54600000Y-76000000D03*
X56500000Y-76000000D03*
%TD*%
D10*
%TO.C,R28*%
X74430500Y-24496000D03*
X72605500Y-24496000D03*
%TD*%
%TO.C,R23*%
X79510500Y-28306000D03*
X77685500Y-28306000D03*
%TD*%
%TO.C,R11*%
X79510500Y-61072000D03*
X77685500Y-61072000D03*
%TD*%
D18*
%TO.C,R12*%
X77685500Y-64374000D03*
X79510500Y-64374000D03*
%TD*%
D16*
%TO.C,R22*%
X82154000Y-33536500D03*
X82154000Y-31711500D03*
%TD*%
D19*
%TO.C,Vin*%
X79550000Y-17250000D03*
X77950000Y-17250000D03*
%TD*%
D10*
%TO.C,R29*%
X70112500Y-24496000D03*
X68287500Y-24496000D03*
%TD*%
D20*
%TO.C,C2*%
X58750000Y-80450000D03*
X58750000Y-78550000D03*
%TD*%
D21*
%TO.C,R18*%
X69850000Y-52681500D03*
X69850000Y-54506500D03*
%TD*%
D10*
%TO.C,R15*%
X79510500Y-47102000D03*
X77685500Y-47102000D03*
%TD*%
D16*
%TO.C,R2*%
X40132000Y-47902500D03*
X40132000Y-46077500D03*
%TD*%
D18*
%TO.C,R25*%
X82003500Y-24496000D03*
X83828500Y-24496000D03*
%TD*%
D10*
%TO.C,R8*%
X73922500Y-64374000D03*
X72097500Y-64374000D03*
%TD*%
D18*
%TO.C,R16*%
X77685500Y-43292000D03*
X79510500Y-43292000D03*
%TD*%
D10*
%TO.C,R9*%
X69858500Y-64374000D03*
X68033500Y-64374000D03*
%TD*%
D22*
%TO.C,C6*%
X48000000Y-68050000D03*
X48000000Y-69950000D03*
%TD*%
D21*
%TO.C,R4*%
X34500000Y-46087500D03*
X34500000Y-47912500D03*
%TD*%
D22*
%TO.C,C4*%
X44000000Y-74300000D03*
X44000000Y-76200000D03*
%TD*%
D23*
%TO.C,IC2*%
X77754000Y-31972000D03*
X77104000Y-31972000D03*
X76454000Y-31972000D03*
X75804000Y-31972000D03*
X75154000Y-31972000D03*
X74504000Y-31972000D03*
X73854000Y-31972000D03*
X73854000Y-37848000D03*
X74504000Y-37848000D03*
X75154000Y-37848000D03*
X75804000Y-37848000D03*
X76454000Y-37848000D03*
X77104000Y-37848000D03*
X77754000Y-37848000D03*
%TD*%
D18*
%TO.C,R13*%
X81749500Y-64374000D03*
X83574500Y-64374000D03*
%TD*%
D21*
%TO.C,R6*%
X82296000Y-67921500D03*
X82296000Y-69746500D03*
%TD*%
%TO.C,R10*%
X82296000Y-56491500D03*
X82296000Y-58316500D03*
%TD*%
D16*
%TO.C,R1*%
X47750000Y-79325000D03*
X47750000Y-77500000D03*
%TD*%
D21*
%TO.C,R3*%
X30750000Y-46087500D03*
X30750000Y-47912500D03*
%TD*%
D18*
%TO.C,R7*%
X72097500Y-61072000D03*
X73922500Y-61072000D03*
%TD*%
D10*
%TO.C,R20*%
X74176500Y-43292000D03*
X72351500Y-43292000D03*
%TD*%
D18*
%TO.C,R19*%
X72351500Y-47102000D03*
X74176500Y-47102000D03*
%TD*%
D24*
%TO.C,C8*%
X51000000Y-58500000D03*
X49100000Y-58500000D03*
%TD*%
D18*
%TO.C,R17*%
X82511500Y-43292000D03*
X84336500Y-43292000D03*
%TD*%
D24*
%TO.C,C7*%
X55950000Y-58500000D03*
X54050000Y-58500000D03*
%TD*%
D20*
%TO.C,C5*%
X47500000Y-73950000D03*
X47500000Y-72050000D03*
%TD*%
D23*
%TO.C,IC1*%
X74108000Y-56898000D03*
X74758000Y-56898000D03*
X75408000Y-56898000D03*
X76058000Y-56898000D03*
X76708000Y-56898000D03*
X77358000Y-56898000D03*
X78008000Y-56898000D03*
X78008000Y-51022000D03*
X77358000Y-51022000D03*
X76708000Y-51022000D03*
X76058000Y-51022000D03*
X75408000Y-51022000D03*
X74758000Y-51022000D03*
X74108000Y-51022000D03*
%TD*%
D24*
%TO.C,C9*%
X49700000Y-52500000D03*
X47800000Y-52500000D03*
%TD*%
D18*
%TO.C,R27*%
X72605500Y-28306000D03*
X74430500Y-28306000D03*
%TD*%
D16*
%TO.C,R26*%
X69708000Y-33536500D03*
X69708000Y-31711500D03*
%TD*%
D18*
%TO.C,R24*%
X77685500Y-24496000D03*
X79510500Y-24496000D03*
%TD*%
D20*
%TO.C,C1*%
X54750000Y-80400000D03*
X54750000Y-78500000D03*
%TD*%
D21*
%TO.C,R5*%
X45000000Y-46087500D03*
X45000000Y-47912500D03*
%TD*%
D25*
%TO.C,U1*%
X38500000Y-80005000D03*
X38500000Y-78735000D03*
X38500000Y-77465000D03*
X38500000Y-76195000D03*
X38500000Y-74925000D03*
X38500000Y-73655000D03*
X38500000Y-72385000D03*
X38500000Y-71115000D03*
X38500000Y-69845000D03*
X38500000Y-68575000D03*
X38500000Y-67305000D03*
X38500000Y-66035000D03*
X38500000Y-64765000D03*
X38500000Y-63495000D03*
D26*
X35715000Y-62495000D03*
X34445000Y-62495000D03*
X33175000Y-62495000D03*
X31905000Y-62495000D03*
X30635000Y-62495000D03*
X29365000Y-62495000D03*
X28095000Y-62495000D03*
X26825000Y-62495000D03*
X25555000Y-62495000D03*
X24285000Y-62495000D03*
D25*
X21500000Y-63495000D03*
X21500000Y-64765000D03*
X21500000Y-66035000D03*
X21500000Y-67305000D03*
X21500000Y-68575000D03*
X21500000Y-69845000D03*
X21500000Y-71115000D03*
X21500000Y-72385000D03*
X21500000Y-73655000D03*
X21500000Y-74925000D03*
X21500000Y-76195000D03*
X21500000Y-77465000D03*
X21500000Y-78735000D03*
X21500000Y-80005000D03*
D27*
X31000000Y-72505000D03*
%TD*%
D18*
%TO.C,R35*%
X71837500Y-17250000D03*
X73662500Y-17250000D03*
%TD*%
M02*
