%TF.GenerationSoftware,KiCad,Pcbnew,(6.0.1)*%
%TF.CreationDate,2022-03-29T14:50:23-05:00*%
%TF.ProjectId,IntelliSOLE_rev2,496e7465-6c6c-4695-934f-4c455f726576,rev?*%
%TF.SameCoordinates,Original*%
%TF.FileFunction,Paste,Bot*%
%TF.FilePolarity,Positive*%
%FSLAX46Y46*%
G04 Gerber Fmt 4.6, Leading zero omitted, Abs format (unit mm)*
G04 Created by KiCad (PCBNEW (6.0.1)) date 2022-03-29 14:50:23*
%MOMM*%
%LPD*%
G01*
G04 APERTURE LIST*
G04 Aperture macros list*
%AMRoundRect*
0 Rectangle with rounded corners*
0 $1 Rounding radius*
0 $2 $3 $4 $5 $6 $7 $8 $9 X,Y pos of 4 corners*
0 Add a 4 corners polygon primitive as box body*
4,1,4,$2,$3,$4,$5,$6,$7,$8,$9,$2,$3,0*
0 Add four circle primitives for the rounded corners*
1,1,$1+$1,$2,$3*
1,1,$1+$1,$4,$5*
1,1,$1+$1,$6,$7*
1,1,$1+$1,$8,$9*
0 Add four rect primitives between the rounded corners*
20,1,$1+$1,$2,$3,$4,$5,0*
20,1,$1+$1,$4,$5,$6,$7,0*
20,1,$1+$1,$6,$7,$8,$9,0*
20,1,$1+$1,$8,$9,$2,$3,0*%
G04 Aperture macros list end*
%ADD10RoundRect,0.250000X-0.450000X0.262500X-0.450000X-0.262500X0.450000X-0.262500X0.450000X0.262500X0*%
%ADD11RoundRect,0.250000X-0.475000X0.250000X-0.475000X-0.250000X0.475000X-0.250000X0.475000X0.250000X0*%
%ADD12RoundRect,0.250000X0.450000X-0.262500X0.450000X0.262500X-0.450000X0.262500X-0.450000X-0.262500X0*%
%ADD13R,1.425000X0.300000*%
%ADD14RoundRect,0.250000X0.475000X-0.250000X0.475000X0.250000X-0.475000X0.250000X-0.475000X-0.250000X0*%
%ADD15R,1.300000X4.400000*%
%ADD16R,0.950000X1.350000*%
%ADD17R,3.250000X1.350000*%
%ADD18RoundRect,0.250000X0.250000X0.475000X-0.250000X0.475000X-0.250000X-0.475000X0.250000X-0.475000X0*%
G04 APERTURE END LIST*
D10*
%TO.C,R32*%
X46000000Y-48250000D03*
X46000000Y-50075000D03*
%TD*%
%TO.C,R36*%
X27750000Y-34250000D03*
X27750000Y-36075000D03*
%TD*%
D11*
%TO.C,C12*%
X40000000Y-54550000D03*
X40000000Y-56450000D03*
%TD*%
D12*
%TO.C,R34*%
X49250000Y-45575000D03*
X49250000Y-43750000D03*
%TD*%
D13*
%TO.C,IC3*%
X57212000Y-47250000D03*
X57212000Y-47750000D03*
X57212000Y-48250000D03*
X57212000Y-48750000D03*
X57212000Y-49250000D03*
X52788000Y-49250000D03*
X52788000Y-48750000D03*
X52788000Y-48250000D03*
X52788000Y-47750000D03*
X52788000Y-47250000D03*
%TD*%
D11*
%TO.C,C13*%
X49500000Y-51750000D03*
X49500000Y-53650000D03*
%TD*%
D10*
%TO.C,R33*%
X46000000Y-43750000D03*
X46000000Y-45575000D03*
%TD*%
D14*
%TO.C,C11*%
X58000000Y-41750000D03*
X58000000Y-39850000D03*
%TD*%
D12*
%TO.C,R31*%
X52000000Y-41750000D03*
X52000000Y-39925000D03*
%TD*%
%TO.C,R30*%
X62250000Y-52250000D03*
X62250000Y-50425000D03*
%TD*%
D15*
%TO.C,L1*%
X56550000Y-56500000D03*
X53750000Y-56500000D03*
%TD*%
D16*
%TO.C,Q1*%
X78800000Y-25100000D03*
X76500000Y-25100000D03*
X74200000Y-25100000D03*
D17*
X76500000Y-18400000D03*
%TD*%
D11*
%TO.C,C14*%
X27750000Y-38550000D03*
X27750000Y-40450000D03*
%TD*%
D18*
%TO.C,C10*%
X41250000Y-51000000D03*
X39350000Y-51000000D03*
%TD*%
M02*
